{
"something_went_wrong_please_try_again_later":"কিছু ভুল হয়েছে। পরে আবার চেষ্টা করুন",
"like":"মত",
"reply":"উত্তর",
"write_a_comment":"একটি মন্তব্য লিখুন...",
"set_username":"ব্যবহারকারীর নাম সেট করুন",
"pick_username_for_your_account_you_can_always_change_it_later":"আপনার অ্যাকাউন্টের জন্য ব্যবহারকারীর নাম চয়ন করুন। আপনি সর্বদা এটি পরে পরিবর্তন করতে পারেন।",
"username":"ব্যবহারকারীর নাম",
"next":"পরবর্তী",
"change_username":"ব্যবহারকারীর নাম পরিবর্তন করুন",
"Find_people_to_follow_and_start_sharing_photos_and_trends_You_can_change_your_username_anytime":"ফটোগুলি এবং প্রবণতাগুলি অনুসরণ করতে এবং ভাগ করতে লোককে সন্ধান করুন। আপনি যে কোনও সময় আপনার ব্যবহারকারীর নাম পরিবর্তন করতে পারেন।",
"edit_profile":"জীবন বৃত্তান্ত সম্পাদনা",
"create_folder":"ফোল্ডার তৈরি করুন",
"follow":"অনুসরণ",
"expires_in":"মেয়াদ শেষ",
"ago":"পূর্বে",
"tag":"ট্যাগ",
"location":"অবস্থান",
"delete":"মুছে ফেলা",
"don_t_have_an_account":"কোন অ্যাকাউন্ট নেই?",
"sign_up":"নিবন্ধন করুন",
"login":"প্রবেশ করুন",
"forgot_your_password":"আপনি কি পাসওয়ার্ড ভুলে গেছেন",
"enter_your_email_address_or_mobile_number_below_to_receive_your_password_reset_instruction":"আপনার পাসওয়ার্ড পুনরায় সেট করার নির্দেশনা পেতেনীচে আপনার ইমেল ঠিকানা বা মোবাইল নম্বর প্রবেশ করান",
"save":"সংরক্ষণ",
"forgot_password":"পাসওয়ার্ড ভুলে গেছেন",
"send":"পাঠান",
"email_address_mobile_no":"ইমেল ঠিকানা / মোবাইল নং",
"password":"পাসওয়ার্ড",
"confirm_password":"পাসওয়ার্ড নিশ্চিত করুন",
"already_have_an_account":"ইতিমধ্যে একটি সদস্যপদ আছে?",
"by_joining_you_agree_to_the_terms_and_privacy":"যোগদান করে আপনি শর্তাদি এবং গোপনীয়তার সাথে সম্মত হন",
"confirm_password":"পাসওয়ার্ড নিশ্চিত করুন",
"last_name":"নামের শেষাংশ",
"first_name":"নামের প্রথম অংশ",
"birth_date_mm_dd_yyyy":"জন্ম তারিখ (এমএম / ডিডি / ওয়াইওয়াইওয়াই)",
"tap_here_to_choose_your_profile_picture":"আপনার প্রোফাইল ছবি চয়ন করতে এখানে আলতো চাপুন",
"name_this_group":"এই গোষ্ঠীর নাম দিন ...",
"group_description":"গ্রুপ বিবরণ",
"mobile_number":"মোবাইল নম্বর",
"trend_alerts":"ট্রেন্ড সতর্কতা",
"trender_travel":"ট্রেন্ডার ট্র্যাভেল",
"friends":"বন্ধুরা",
"groups":"গ্রুপ",
"go_premium":"প্রিমিয়াম যান",
"invite_contacts":"পরিচিতিগুলিকে আমন্ত্রণ জানান",
"languages":"ভাষাসমূহ",
"switch_to_business_account":"ব্যবসায় অ্যাকাউন্টে স্যুইচ করুন",
"terms_services":"শর্তাদি এবং পরিষেবাদি",
"contact_us":"যোগাযোগ করুন",
"about_this_app":"এই অ্যাপ সম্পর্কে",
"create_advertisement":"বিজ্ঞাপন তৈরি করুন",
"logout":"প্রস্থান",
"settings":"সেটিংস",
"post_trend":"ট্রেড পোস্ট করুন",
"about":"সম্পর্কিত",
"discussion":"আলোচনা",
"add":"যোগ",
"members":"সদস্য",
"friends":"বন্ধুরা",
"trender":"Trender",
"my_trends":"আমার ট্রেন্ডস",
"favorite":"প্রিয়",
"my_favorite":"আমার পছন্দ",
"admins":"প্রশাসকদের",
"what_is_your_links_and_websites":"আপনার লিঙ্ক এবং ওয়েবসাইট কি?",
"interest":"স্বার্থ",
"education":"শিক্ষা",
"male":"পুরুষ",
"female":"মহিলা",
"open":"খোলা",
"close":"ঘনিষ্ঠ",
"hours":"ঘন্টার",
"days":"দিন",
"please_enter_valid_email_address":"বৈধ ইমেইল ঠিকানা লিখুন.",
"password_cannot_be_empty":"পাসওয়ার্ড খালি থাকতে পারে না।",
"password_cannot_be_less_then_6_characters":"পাসওয়ার্ডের চেয়ে কম 6 অক্ষর থাকতে পারে না",
"please_enter_valid_password":"বৈধ পাসওয়ার্ড লিখুন দয়া করে",
"password_did_not_match":"পাসওয়ার্ড মেলেনি।",
"first_name_cannot_be_empty":"প্রথম নামটি খালি থাকতে পারে না।",
"last_name_cannot_be_empty":"পদবি খালি থাকতে পারে না।",
"birthday_cannot_be_empty":"জন্মদিন খালি থাকতে পারে না।",
"location_cannot_be_empty":"অবস্থান খালি থাকতে পারে না।",
"please_enter_valid_location":"বৈধ অবস্থান প্রবেশ করুন",
"contact_cannot_be_empty":"যোগাযোগ খালি থাকতে পারে না",
"please_enter_valid_contact_number":"বৈধ যোগাযোগ নম্বর প্রবেশ করুন",
"please_enter_valid_email_address_mobile_no_username":"বৈধ ইমেল ঠিকানা / মোবাইল নম্বর / ব্যবহারকারীর নাম প্রবেশ করুন",
"please_enter_valid_email_address_or_mobile_no":"বৈধ ইমেল ঠিকানা বা মোবাইল নম্বর প্রবেশ করুন",
"choose_trend_type":"ট্রেন্ডের প্রকারটি চয়ন করুন",
"permission":"অনুমতি",
"text":"পাঠ",
"audio":"শ্রুতি",
"location":"অবস্থান",
"tag_trenders":"ট্যাগ ট্রেন্ডার",
"description":"বিবরণ",
"title":"শিরোনাম",
"check_out_my_latest_trend":"আমার সর্বশেষ প্রবণতাটি দেখুন",
"entering_contest":"তথ্য প্রবেশ করানো হচ্ছে",
"create_trend":"ট্রেড তৈরি করুন",
"rules_regulations":"বিধি ও প্রবিধান",
"entry_deadline":"প্রবেশের সময়সীমা",
"about_me":"আমার সম্পর্কে",
"what_is_your_education":"আপনার শিক্ষা কি ?",
"what_is_your_interest":"আপনার আগ্রহ কি?",
"what_is_your_links_and_websites":"আপনার লিঙ্ক এবং ওয়েবসাইট কি?",
"religion":"ধর্ম",
"edit":"সম্পাদন করা",
"gender":"লিঙ্গ",
"Public":"প্রকাশ্য",
"Private":"ব্যক্তিগত",
"friends":"বন্ধুরা",
"folder":"ফোল্ডার",
"create_new_folder":"নতুন ফোল্ডার তৈরি কর",
"select_all":"সমস্ত নির্বাচন করুন",
"add_photo":"ফটো যুক্ত করুন",
"take_photo":"ছবি তোল",
"choose_from_library":"লাইব্রেরি থেকে বাছাই কর",
"storage_permission_is_required_in_order_to_set_profile_photo":"প্রোফাইল ফটো সেট করার জন্য স্টোরেজ অনুমতি প্রয়োজন",
"please_provide_storage_permission_to_access_images":"চিত্রগুলিতে অ্যাক্সেস করতে স্টোরেজ অনুমতি প্রদান করুন",
"old_password":"পুরানো পাসওয়ার্ড",
"new_password":"নতুন পাসওয়ার্ড",
"change_password":"পাসওয়ার্ড পরিবর্তন করুন",
"readotp":"ReadOtp",
"verification":"প্রতিপাদন",
"enter_the_verification_code":"যাচাই কোড লিখুন",
"resend_verification_code":"নিশ্চিতকরণ কোড আবার পাঠান",
"about_cannot_be_empty":"প্রায় খালি থাকতে পারে না",
"education_cannot_be_empty":"শিক্ষা খালি থাকতে পারে না",
"interest_cannot_be_empty":"আগ্রহ খালি থাকতে পারে না",
"religion_cannot_be_em":"ধর্ম এম হতে পারে না",
"link_website_cannot_be_empty":"লিঙ্ক / ওয়েবসাইট খালি থাকতে পারে না",
"logged_in_successfully":"সফলভাবে লগ ইন হয়েছে",
"comment":"মন্তব্য",
"friends":"বন্ধুরা",
"requests":"অনুরোধ",
"request":"অনুরোধ",
"friend_suggestions":"বন্ধুর পরামর্শ",
"message":"বার্তা",
"unblock":"অবরোধ মুক্ত করুন",
"tap_to_log_in":"লগ ইন করতে আলতো চাপুন",
"log_into_another_account":"অন্য অ্যাকাউন্টে লগ ইন করুন",
"create_new_account":"নতুন অ্যাকাউন্ট তৈরি",
"welcome_to_trender_alert":"ট্রেন্ডার সতর্কতায় আপনাকে স্বাগতম,",
"skip":"লাফালাফি করা",
"reset_password":"পাসওয়ার্ড রিসেট করুন",
"new_password_and_confirm_password_not_match":"নতুন পাসওয়ার্ড এবং নিশ্চিত পাসওয়ার্ড মেলে না।",
"get_premium":"প্রিমিয়াম পান",
"friend_list":"বন্ধু তালিকা",
"friend_request":"বন্ধু অনুরোধ",
"friend_suggestions":"বন্ধুর পরামর্শ",
"start_typing":"টাইপিং শুরু করুন ..",
"add_tag":"ট্যাগ যুক্ত করুন",
"groups":"গ্রুপ",
"create_group":"দল গঠন",
"add_location":"ঠিকানা যোগ করুন",
"please_enter_a_tag":"একটি ট্যাগ প্রবেশ করুন",
"please_enter_location":"দয়া করে অবস্থান লিখুন",
"no":"না",
"are_you_sure_you_want_to_remove_this_trend_alert":"আপনি কি এই ট্রেন্ড সতর্কতাটি সরানোর বিষয়ে নিশ্চিত?",
"yes":"হ্যাঁ",
"trenders_tagged":"ট্রেন্ডার ট্যাগ",
"tag_limit_per_alert_is_3":"সতর্কতা প্রতি ট্যাগ সীমা 3",
"location_limit_per_alert_is_3":"সতর্কতার জন্য অবস্থানের সীমা 3",
"edit_bio":"বায়ো সম্পাদনা করুন",
"add_a_comment":"একটা মন্তব্য যোগ করুন...",
"trend_alerts":"ট্রেন্ড সতর্কতা",
"status":"অবস্থা",
"image":"ভাবমূর্তি",
"video":"ভিডিও",
"are_you_sure_you_want_to_delete":"আপনি মুছে ফেলতে চান",
"please_add_alert_preference":"সতর্কতা অগ্রাধিকার যোগ করুন।",
"take_video":"ভিডিও নিন",
"please_wait":"অনুগ্রহপূর্বক অপেক্ষা করুন...",
"permission_denied":"অনুমতি অস্বীকৃত।",
"session_expired_please_login":"সেশনটির মেয়াদ শেষ হয়েছে ired প্লিজ লগইন করুন",
"you_need_to_be_16_to_sign_up":"সাইন আপ করতে আপনার 16+ হওয়া দরকার।",
"can_t_delete_an_empty_trend_alert":"একটি খালি ট্রেন্ড সতর্কতা মোছা যায় না",
"type_a_status":"একটি স্থিতি টাইপ করুন",
"closed":"বন্ধ",
"secret":"গোপন",
"any_one_can_find_the_group_see_who_is_in_it_and_what_they_post":"যে কেউ গোষ্ঠীটি খুঁজে পেতে পারে, এতে কে আছে এবং তারা কী পোস্ট করেছে তা দেখুন",
"anyone_can_search_the_group_only_member_can_see_who_is_in_it_and_what_they_post":"যে কেউ গ্রুপটি অনুসন্ধান করতে পারেন।এতে কে আছে এবং তারা কী পোস্ট করেছেকেবল সদস্য তা দেখতে পাবে",
"only_member_can_search_for_group_see_members_and_there_post":"কেবল সদস্যই গোষ্ঠীটি অনুসন্ধান করতে পারবেন, সদস্য এবং সেখানে পোস্ট দেখতে পাবেন।",
"select_privacy":"গোপনীয়তা নির্বাচন করুন",
"trend_created_successfully":"ট্রেন্ড সফলভাবে তৈরি করা হয়েছে",
"folder_name":"ফোল্ডারের নাম",
"share":"ভাগ",
"share_external":"বাহ্যিক ভাগ করুন",
"favorite":"প্রিয়",
"unfavorite":"পছন্দসই থেকে সরান",
"turn_off_post_notifications":"পোস্ট বিজ্ঞপ্তি বন্ধ করুন",
"report":"প্রতিবেদন",
"save_to_folder":"ফোল্ডারে সংরক্ষণ করুন",
"delete_trend":"ট্রেন্ড মুছুন",
"edit_trend":"ট্রেন্ড সম্পাদনা করুন",
"Description":"বিবরণ",
"anyone_can_search_the_group_amp_what_they_post":"যে কেউ গোষ্ঠীটি অনুসন্ধান করতে পারেন & amp;তারা কি পোস্ট।",
"trend_setters":"ট্রেন্ড সেটটার্স",
"expires_in":"মেয়াদ শেষ",
"please_add_a_comment":"একটি মন্তব্য যোগ করুন",
"write_a_reply":"একটি প্রতিউত্তর লেখ..",
"please_add_a_reply":"একটি উত্তর যুক্ত করুন।",
"are_you_sure_you_want_to_delete_comment":"আপনি কি নিশ্চিত মন্তব্যটি মুছতে চান?",
"confirmation":"অনুমোদন",
"are_you_sure_you_want_to_delete_reply":"আপনি কি নিশ্চিত যে আপনি উত্তর মুছতে চান?",
"update":"হালনাগাদ",
"edit":"সম্পাদন করা",
"liked":"পছন্দ",
"all":"সব",
"messages":"বার্তা",
"notifications":"বিজ্ঞপ্তিগুলি",
"no_notifications_found":"কোন বিজ্ঞপ্তি পাওয়া যায় নি",
"following":"অনুসরণ",
"search_gif":"জিআইএফ অনুসন্ধান করুন",
"hold_to_record_nrelease_to_send":"রেকর্ড করতে ধরে রাখুন \n প্রেরণ করুন।",
"are_you_sure_you_want_to_send_this_audio_message":"আপনি কি নিশ্চিত যে আপনি এই অডিও বার্তাটি প্রেরণ করতে চান?",
"cancel":"বাতিল",
"have_sent_an_audio_reply":"একটি অডিও উত্তর পাঠিয়েছে।",
"block":"বাধা",
"unfriend":"unfriend",
"search_by_name":"নাম দ্বারা অনুসন্ধান",
"say_something_about_this":"এটা সম্পর্কে কিছু বল",
"share_now":"এখন শেয়ার",
"nudity":"নগ্নতা",
"violence":"হিংস্রতা",
"harassment":"হয়রানি",
"suicide_or_self_injury":"আত্মহত্যা বা স্ব-জিনজুরি",
"false_news":"ভুয়া খবর",
"spam":"স্প্যাম",
"unauthorised_sales":"অননুমোদিত বিক্রয়",
"hate_speech":"ঘৃণাবাচক কথা",
"terrorism":"সন্ত্রাসবাদ",
"incorrect_voting_information":"ভোটিংয়ের ভুল তথ্য",
"reporting_trend":"প্রতিবেদনের প্রবণতা",
"use_camera":"ক্যামেরা ব্যবহার করুন",
"upload_from_gallery":"গ্যালারী থেকে আপলোড করুন",
"add_photo":"ফটো যুক্ত করুন",
"remove_photo":"ফটো সরান",
"create_new_folder":"নতুন ফোল্ডার তৈরি কর",
"please_select_folder":"দয়া করে ফোল্ডারটি নির্বাচন করুন",
"about_this_group":"এই গ্রুপ সম্পর্কে",
"view_group_info":"গ্রুপ তথ্য দেখুন",
"history":"ইতিহাস",
"type_your_message":"আপনার বার্তা টাইপ করুন ...",
"search_by_name":"নাম দ্বারা অনুসন্ধান",
"search_name":"নাম অনুসন্ধান করুন",
"add_friends_to_tag":"ট্যাগগুলিতে বন্ধুদের যুক্ত করুন",
"shared":"ভাগ",
"s_trend":"এর প্রবণতা",
"people_who_liked":"যারা পছন্দ করেছেন",
"people_who_shared":"ভাগ করে নেওয়ার লোকেরা",
"people_who_viewd":"যারা দেখেছেন",
"share":"ভাগ",
"this_feature_is_for_premium_members_only":"এই বৈশিষ্ট্যটি কেবল প্রিমিয়াম সদস্যদের জন্য।",
"buy_a_premium_package_if_you_wish_to_add_more_trend_preference":"আপনি যদি আরও ট্রেন্ড পছন্দ যুক্ত করতে চান তবে একটি প্রিমিয়াম প্যাকেজ কিনুন।",
"sorry_you_can_t_add_more_trend_preference_maximum_limit_for_adding_trend_preference_is_reached":"দুঃখিত আপনি আরও প্রবণতা পছন্দ যোগ করতে পারবেন না। প্রবণতা পছন্দ যুক্ত করার সর্বাধিক সীমা পৌঁছেছে",
"please_add_a_message":"দয়া করে একটি বার্তা যুক্ত করুন।",
"public_group":"পাবলিক গ্রুপ",
"closed_group":"বন্ধ গ্রুপ",
"secret_group":"গোপন দল",
"add_video":"ভিডিও যোগ করুন",
"clear_chat":"চ্যাট সাফ করুন",
"search_people":"লোক অনুসন্ধান করুন",
"people":"সম্প্রদায়",
"tags":"ট্যাগ",
"places":"জায়গা",
"are_you_sure_you_want_to_block":"আপনি কি নিশ্চিত যে আপনি অবরুদ্ধ করতে চান?",
"contest_list":"প্রতিযোগিতার তালিকা",
"posted_trends":"প্রবণতা পোস্ট",
"no_contests_found":"কোনও প্রতিযোগিতা পাওয়া যায় নি",
"monthly_contest":"মাসিক প্রতিযোগিতা",
"contest":"প্রতিযোগিতা",
"prize":"পুরস্কার",
"contest_winner_list":"প্রতিযোগিতার বিজয়ীর তালিকা",
"contest_winners":"প্রতিযোগিতা বিজয়ীরা",
"search_winner":"অনুসন্ধান বিজয়ী",
"no_data_found":"কোনও ডেটা পাওয়া যায় নি।",
"entry_fee":"প্রবেশ মূল্য",
"contest_details":"প্রতিযোগিতার বিবরণ",
"save_profile":"প্রোফাইল সংরক্ষণ",
"quick_tips":"দ্রুত টিপস",
"trend_alert_tag_prefrences_upto_5_tags":"ট্রেন্ড সতর্কতা ট্যাগ 5 টি পর্যন্ত ট্যাগের অগ্রাধিকার দেয়",
"upload_upto_15_images_status":"15 টি চিত্র / স্থিতি আপলোড করুন",
"upload_1_video_with_max_size_256mb":"সর্বোচ্চ আকার 256MB সহ 1 টি ভিডিও আপলোড করুন",
"trend_last_upto_90_days":"প্রবণতা 90 দিন অবধি শেষ",
"access_to_your_friend_list_and_groups":"আপনার বন্ধুদের তালিকা এবং গোষ্ঠীগুলিতে অ্যাক্সেস করুন।",
"view_profile":"প্রোফাইল দেখুন",
"are_you_sure_you_want_to_clear_this_chat":"আপনি কি নিশ্চিত যে আপনি এই চ্যাটটি সাফ করতে চান?",
"search_tag":"অনুসন্ধান ট্যাগ",
"no_internet_connection":"কোনও ইন্টারনেট সংযোগ নেই।",
"search_trend":"অনুসন্ধানের ট্রেন্ড",
"miles_5":"5 মাইল",
"miles_20":"20 মাইল",
"miles_50":"50 মাইল",
"miles_100":"100 মাইল",
"trender_travel":"ট্রেন্ডার ট্র্যাভেল",
"trend_detail":"ট্রেন্ড বিশদ",
"no_trends_found":"কোনও ট্রেন্ডস পাওয়া যায় নি।",
"turn_off_to_type_new_location":"নতুন অবস্থান টাইপ করতে বন্ধ করুন।",
"contest_trend_post_list":"প্রতিযোগিতার ট্রেন্ড পোস্টের তালিকা",
"blocklist":"কালো তালিকা",
"join_group":"দলে যোগ দাও",
"no_data_available":"কোন তথ্য নেই",
"about_this_group":"এই গ্রুপ সম্পর্কে",
"member_not_available":"সদস্য উপলব্ধ নেই",
"admin_not_available":"প্রশাসন উপলভ্য নয়",
"see_all":"সবগুলো দেখ",
"edit_group_detail":"গ্রুপ বিশদ সম্পাদনা করুন",
"message_token":"বার্তা টোকেন",
"alert_settings":"সতর্কতা সেটিংস",
"when_on_trender_alert":"যখন ট্রেন্ডার সতর্কতা থাকে",
"get_notification_from_everwhere":"কোথাও থেকে বিজ্ঞপ্তি পান",
"only_people_you_follow":"কেবলমাত্র আপনি অনুসরণ করেন এমন লোকেরা",
"only_people_following_you":"কেবলমাত্র লোকেরা আপনাকে অনুসরণ করছে",
"gets_a_heads_up_notify_when_someone":"কেউ যখন শীর্ষে থাকে / অবহিত হয়",
"likes_your_trends":"আপনার প্রবণতা পছন্দ করে",
"follow_your_trends":"আপনার প্রবণতা অনুসরণ করুন",
"comment_on_your_trends":"আপনার প্রবণতা সম্পর্কে মন্তব্য",
"send_a_message":"একটি বার্তা পাঠান",
"turn_on":"চালু করা",
"text_chat":"টেক্সট চ্যাট",
"audio_chat":"অডিও চ্যাট",
"save_setting":"সেটিং সংরক্ষণ করুন",
"ad_url_will_open_in_external_browser":"বিজ্ঞাপন url (বাহ্যিক ব্রাউজারে খুলবে)",
"bussines_name":"বুসাইনস নাম",
"bussines_type":"Bussines প্রকার",
"duration_of_ad":"বিজ্ঞাপনের সময়কাল",
"placement_prefrences":"বসানো পছন্দসই",
"pay":"বেতন",
"contest_payment":"প্রতিযোগিতা প্রদান",
"are_you_sure_you_want_to_delete_this_messages":"আপনি কি নিশ্চিত যে আপনি এই বার্তাগুলি মুছতে চান?",
"active_now":"এখন সক্রিয়",
"online":"অনলাইন",
"this_message_was_deleted":"এই বার্তাটি মুছে ফেলা হয়েছে",
"last_seen":"শেষ দেখা",
"advertisement_list":"বিজ্ঞাপনের তালিকা",
"pending":"বিচারাধীন",
"approved":"অনুমোদিত",
"rejected":"প্রত্যাখ্যাত",
"business_account_details":"ব্যবসায় অ্যাকাউন্টের বিশদ",
"activity":"কার্যকলাপ",
"content":"সন্তুষ্ট",
"audience":"পাঠকবর্গ",
"business_account":"ব্যবসা অ্যাকাউন্ট",
"interactions":"ইন্টারঅ্যাকশনগুলি",
"profile_visits":"প্রোফাইল দর্শন",
"discovery":"আবিষ্কার",
"reach":"নাগাল",
"impression":"ছাপ",
"top_locations":"শীর্ষস্থানীয় অবস্থানসমূহ",
"cities":"শহর",
"countries":"দেশ",
"age":"বয়স",
"men":"পুরুষদের",
"women":"মহিলাদের",
"what_are_interactions":"মিথস্ক্রিয়া কি?",
"this_set_of_insights_measures_the_actions_people_take_when_they_engage_with_your_account":"অন্তর্দৃষ্টিগুলির এই সেটটি আপনার অ্যাকাউন্টে জড়িত থাকার সময়লোকেরাগ্রহণ করাপদক্ষেপগুলি পরিমাপ করে।",
"the_number_of_times_your_profile_was_viewed":"আপনার প্রোফাইলটি কতবার দেখা হয়েছে।",
"what_is_discovery":"আবিষ্কার কী?",
"this_set_of_insights_measures_how_many_people_see_your_content_and_where_they_find_it":"এই অন্তর্দৃষ্টিগুলির সেটটি পরিমাপ করে যে কত লোক আপনার সামগ্রী দেখবে এবং তারা কোথায় এটি খুঁজে পাবে",
"the_number_of_unique_accounts_that_have_seen_any_of_your_posts_the_reach_metric_is_an_estimate_and_may_not_be_exact":"অনন্য অ্যাকাউন্টগুলির সংখ্যা যা আপনার কোনও পোস্ট দেখেছিল। পৌঁছানো মেট্রিক একটি অনুমান এবং সঠিক নাও হতে পারে।",
"the_total_number_of_times_all_of_your_posts_have_been_seen":"আপনার সমস্ত পোস্টের মোটবার দেখা হয়েছে।",
"feed_posts":"ফিড পোস্ট",
"see_all":"সবগুলো দেখ",
"change_language":"ভাষা পরিবর্তন করুন",
"chinese":"চীনা",
"spanish":"স্পেনীয়",
"english":"ইংরেজি",
"hindi":"হিন্দি",
"arabic":"আরবি",
"portuguese":"পর্তুগীজ",
"bengali":"বাংলা",
"russian":"রাশিয়ান",
"japanese":"জাপানি",
"german":"জার্মান",
"ascending":"ঊর্ধ্বগামী",
"descending":"নিম্নক্রম",
"start_Date":"শুরুর তারিখ",
"tap_To_stop_recording_audio":"অডিও রেকর্ডিং বন্ধ করতে আলতো চাপুন",
"gallery":"দরদালান",
"camera":"ক্যামেরা",
"please_select_your_option":"আপনার বিকল্পটি নির্বাচন করুন",
"Write_a_reply":"একটি প্রতিউত্তর লেখ...",
"sorting":"শ্রেণীবিভাজন",
"Requested":"অনুরোধ",
"follow":"অনুসরণ",
"are_you_sure_you_want_to_send_this_audio_message":"আপনি কি নিশ্চিত যে আপনি এই অডিও বার্তাটি প্রেরণ করতে চান?",
"ok":"ঠিক আছে",
"turn_off_post_notifications":"পোস্ট বিজ্ঞপ্তি বন্ধ করুন",
"view":"দেখুন",
"Are_you_sure_you_want_to_delete_this_trend":"আপনি কি নিশ্চিত যে আপনি এই অডিও বার্তাটি প্রেরণ করতে চান?",
"You_can_not_add_more_than_3_locations":"আপনি 3 টিরও বেশি অবস্থান যুক্ত করতে পারবেন না।",
"You_can_not_add_more_than_3_tags":"আপনি 3 টিরও বেশি ট্যাগ যুক্ত করতে পারবেন না।",
"Add_new":"নতুন যুক্ত করুন",
"hour":"ঘন্টা",
"You_can_select_only_15_images_or_status":"আপনি কেবল 15 টি চিত্র বা স্থিতি নির্বাচন করতে পারেন!",
"To_upload_more_get_premium_package":"আরও আপলোড করতে প্রিমিয়াম প্যাকেজ পান!",
"You_can_select_only_1_video":"আপনি কেবল 1 টি ভিডিও নির্বাচন করতে পারেন!",
"create_folder":"ফোল্ডার তৈরি করুন",
"no_friends_found":"কোন বন্ধু পাওয়া যায় নি",
"search":"অনুসন্ধান",
"total_trends":"মোট ট্রেন্ডস",
"Premium_Package":"প্রিমিয়াম প্যাকেজ",
"Ability_to_enter_monthly_contest":"মাসিক প্রতিযোগিতায় প্রবেশের ক্ষমতা।",
"Transaction_ID":"লেনদেন নাম্বার",
"Purchase_Date":"ক্রয় তারিখ",
"Payment_Details":"পেমেন্ট বিবরণ",
"invite_contact_info":"লোকদের ট্রেন্ডার সতর্কতার সাথে সংযোগ স্থাপনে সহায়তা করতে আপনি আমাদের সার্ভারগুলিতে আপনার পরিচিতিগুলিকে পর্যায়ক্রমে সিঙ্ক এবং সঞ্চিত করে রাখতে পারেন। আপনি কোন পরিচিতিগুলিকে আমন্ত্রণ জানাতে চান তা নির্বাচন করুন sy সিঙ্ক করা বন্ধ করতে যে কোনও সময় সংযোগ বিচ্ছিন্ন করুন।",
"invite_friends":"বন্ধুদের আমন্ত্রণ",
"invite_join":"ট্রেন্ডার অ্যালার্টে যোগ দিতে",
"Get_Started":"এবার শুরু করা যাক",
"No_winner_declared_yet":"কোনও বিজয়ী এখনও ঘোষিত হয়নি",
"No_trend_posted_yet":"এখনও কোন প্রবণতা পোস্ট করা হয়নি",
"Advertise_List":"বিজ্ঞাপন তালিকা",
"created_on":"তৈরি",
"create_ad":"বিজ্ঞাপন তৈরি করুন",
"add_imgs_or_video":"ছবি বা ভিডিও যুক্ত করুন",
"Duration_of_ad":"বিজ্ঞাপনের সময়কাল (দিনগুলিতে)",
"no_record_found":"পাওয়া কোন রেকর্ড",
"What_is_discovery":"আবিষ্কার কী?",
"discovery_title_info":"এই অন্তর্দৃষ্টিগুলির সেটটি পরিমাপ করে যে কত লোক আপনার সামগ্রী দেখবে এবং তারা কোথায় এটি খুঁজে পাবে",
"reach_Info":"অনন্য অ্যাকাউন্টগুলির সংখ্যা যা আপনার কোনও পোস্ট দেখেছিল। পৌঁছানো মেট্রিক একটি অনুমান এবং সঠিক নাও হতে পারে।",
"What_are_Interactions":"মিথস্ক্রিয়া কি?",
"links_and_websites":"অন্তর্দৃষ্টিগুলির এই সেটটি আপনার অ্যাকাউন্টে জড়িত থাকার সময় লোকেরা গ্রহণ করা পদক্ষেপগুলি পরিমাপ করে।",
"trend_views":"ট্রেন্ড দর্শন",
"views_info":"আপনার প্রবণতা কতবার দেখা হয়েছে।",
"Trend_Interactions":"ট্রেন্ড ইন্টারঅ্যাকশন",
"Profile_visits_on_your_account":"আপনার অ্যাকাউন্টে প্রোফাইল ভিজিট",
"top_locations":"শীর্ষস্থানীয় অবস্থানগুলি",
"home":"বাড়ি",
"Go_premium":"প্রিমিয়াম যান",
"Languages":"ভাষাসমূহ",
"Likes":"পছন্দ",
"links_and_websites":"লিঙ্ক এবং ওয়েবসাইট",
"profile":"প্রোফাইলের",
"read_more":"আরও পড়ুন",
"read_less":"কম পড়ুন",
"trend_setter":"ট্রেন্ড সেটার",
"first_name":"নামের প্রথম অংশ",
"last_name":"নামের শেষাংশ",
"birth_date":"জন্ম তারিখ (এমএম / ডিডি / ওয়াইওয়াইওয়াই)",
"mobileNo":"মোবাইল নম্বর",
"Unfollow":"অনুসরণ",
"FOLLOW":"অনুসরণ",
"add_Friend":"বন্ধু যোগ করুন",
"remove":"অপসারণ",
"aceept":"গ্রহণ",
"All_Group_Members":"সমস্ত গ্রুপ সদস্য",
"Unmute_Member":"নিঃশব্দ সদস্য",
"mute_member":"নিঃশব্দ সদস্য",
"make_admin":"অ্যাডমিন করা",
"remove_member":"সদস্যকে সরান",
"Are_you_sure_you_want_to_unmute_this_user":"আপনি কি নিশ্চিত যে আপনি এই ব্যবহারকারীকে নিঃশব্দ করতে চান?",
"Are_you_sure_you_want_to_mute_this_user":"আপনি কি নিশ্চিত যে আপনি এই ব্যবহারকারীকে নিঃশব্দ করতে চান?",
"TrenderAlert":"TrenderAlert",
"Are_you_sure_you_want_to_remove_this_user":"আপনি কি নিশ্চিত যে আপনি এই ব্যবহারকারীকে সরাতে চান?",
"add_group_members":"গ্রুপ সদস্যদের যোগ করুন",
"please_select_member":"সদস্যদের নির্বাচন করুন",
"send_request":"অনুরোধ প্রেরণ করুন",
"Joined":"যোগ দিয়েছে",
"Group_Description":"গ্রুপ বিবরণ",
"Group_Name_is_required":"গোষ্ঠীর নাম প্রয়োজন।",
"search_group":"অনুসন্ধান গ্রুপ",
"secret_group_info":"যে কেউ এই গোষ্ঠীটি অনুসন্ধান করতে পারবেন members কেবল সদস্যরা এটিতে রয়েছে এবং তারা কী পোস্ট করছে তা দেখতে পাবে।",
"Please_select_privacy_option":"গোপনীয়তা বিকল্প নির্বাচন করুন।",
"Group_details":"গ্রুপ বিশদ",
"reject":"প্রত্যাখ্যান",
"accept_reject_request":"এই দলে যোগদানের অনুরোধ গ্রহণ করুন বা প্রত্যাখ্যান করুন।",
"Group_Request_Action":"গ্রুপ অনুরোধ কর্ম",
"leave":"ত্যাগ",
"Are_you_sure_you_want_to_leave_this_group":"আপনি এই গ্রুপ ছেড়ে চলে যেতে চাই আপনি কি নিশ্চিত?",
"leave_group_info":"আপনি এই গ্রুপের শেষ সদস্য। আপনি যদি গ্রুপটি ছেড়ে যান তবে এই গোষ্ঠীটি মোছা হবে।",
"group":"গ্রুপ",
"post":"পোস্ট",
"interaction_title_info":"অন্তর্দৃষ্টিগুলির এই সেটটি আপনার অ্যাকাউন্টে জড়িত থাকার সময় লোকেরা গ্রহণ করা পদক্ষেপগুলি পরিমাপ করে।",
"turn_on_post_notifications":"পোস্ট বিজ্ঞপ্তি চালু করুন",
"Welcome_to_TrenderAlert":"ট্রেন্ডার অ্যালার্টে আপনাকে স্বাগতম",
"welcomeInfo":"ফটোগুলি এবং প্রবণতাগুলি অনুসরণ করতে এবং ভাগ করতে লোকদের সন্ধান করুন You আপনি যে কোনও সময় আপনার ব্যবহারকারীর নামটি পরিবর্তন করতে পারেন।",
"accept":"গ্রহণ",
"interaction_title_info":"অন্তর্দৃষ্টিগুলির এই সেটটি আপনার অ্যাকাউন্টে জড়িত থাকার সময় লোকেরা গ্রহণ করা পদক্ষেপগুলি পরিমাপ করে।",
"My_Groups":"আমার দলগুলি",
"Groups_Suggestion": "গোষ্ঠীগুলির পরামর্শ",
"Confirm":"নিশ্চিত করুন"
}
