{
"something_went_wrong_please_try_again_later":"何かが間違っています。後でもう一度試してください",
"like":"好む",
"reply":"応答",
"write_a_comment":"コメントを書く...",
"set_username":"ユーザー名を設定",
"pick_username_for_your_account_you_can_always_change_it_later":"アカウントのユーザー名を選択してください。後でいつでも変更できます。",
"username":"ユーザー名",
"next":"次",
"change_username":"ユーザー名を変更",
"Find_people_to_follow_and_start_sharing_photos_and_trends_You_can_change_your_username_anytime":"フォローする人を見つけて、写真やトレンドの共有を開始します。ユーザー名はいつでも変更できます。",
"edit_profile":"プロファイル編集",
"create_folder":"フォルダーを作る",
"follow":"フォロー",
"expires_in":"期限切れ",
"ago":"前",
"tag":"鬼ごっこ",
"location":"ロケーション",
"delete":"削除する",
"don_t_have_an_account":"アカウントを持っていないのですか？",
"sign_up":"サインアップ",
"login":"ログインする",
"forgot_your_password":"パスワードをお忘れですか",
"enter_your_email_address_or_mobile_number_below_to_receive_your_password_reset_instruction":"パスワードのリセット手順を受け取るには、下にメールアドレスまたは携帯電話番号を入力してください",
"save":"セーブ",
"forgot_password":"パスワードをお忘れですか",
"send":"送る",
"email_address_mobile_no":"メールアドレス/携帯番号",
"password":"パスワード",
"confirm_password":"パスワードを認証する",
"already_have_an_account":"すでにアカウントをお持ちですか？",
"by_joining_you_agree_to_the_terms_and_privacy":"参加すると、利用規約とプライバシーに同意したことになります",
"confirm_password":"パスワードを認証する",
"last_name":"苗字",
"first_name":"ファーストネーム",
"birth_date_mm_dd_yyyy":"生年月日（MM / DD / YYYY）",
"tap_here_to_choose_your_profile_picture":"ここをタップしてプロフィール写真を選択してください",
"name_this_group":"このグループに名前を付けます...",
"group_description":"グループの説明",
"mobile_number":"携帯電話番号",
"trend_alerts":"トレンドアラート",
"trender_travel":"トレンダー旅行",
"friends":"友だち",
"groups":"グループ",
"go_premium":"プレミアムへ",
"invite_contacts":"連絡先を招待",
"languages":"言語",
"switch_to_business_account":"ビジネスアカウントに切り替える",
"terms_services":"利用規約",
"contact_us":"お問い合わせ",
"about_this_app":"このアプリについて",
"create_advertisement":"広告を作成する",
"logout":"ログアウト",
"settings":"設定",
"post_trend":"ポストトレンド",
"about":"約",
"discussion":"討論",
"add":"追加",
"members":"会員",
"friends":"友だち",
"trender":"トレンダー",
"my_trends":"私のトレンド",
"favorite":"お気に入り",
"my_favorite":"お気に入り",
"admins":"管理者",
"what_is_your_links_and_websites":"あなたのリンクとウェブサイトは何ですか？",
"interest":"興味",
"education":"教育",
"male":"男性",
"female":"女性",
"open":"開いた",
"close":"閉じる",
"hours":"時間",
"days":"日々",
"please_enter_valid_email_address":"有効なメールアドレスを入力してください。",
"password_cannot_be_empty":"パスワードを空にすることはできません。",
"password_cannot_be_less_then_6_characters":"パスワードは6文字未満にすることはできません。",
"please_enter_valid_password":"有効なパスワードを入力してください",
"password_did_not_match":"パスワードが一致しませんでした。",
"first_name_cannot_be_empty":"名を空にすることはできません。",
"last_name_cannot_be_empty":"姓を空にすることはできません。",
"birthday_cannot_be_empty":"誕生日を空にすることはできません。",
"location_cannot_be_empty":"場所を空にすることはできません。",
"please_enter_valid_location":"有効な場所を入力してください",
"contact_cannot_be_empty":"連絡先を空にすることはできません",
"please_enter_valid_contact_number":"有効な連絡先番号を入力してください",
"please_enter_valid_email_address_mobile_no_username":"有効なメールアドレス/携帯番号/ユーザー名を入力してください",
"please_enter_valid_email_address_or_mobile_no":"有効なメールアドレスまたは携帯番号を入力してください",
"choose_trend_type":"トレンドタイプを選択",
"permission":"許可",
"text":"テキスト",
"audio":"オーディオ",
"location":"ロケーション",
"tag_trenders":"タグトレンダー",
"description":"説明",
"title":"タイトル",
"check_out_my_latest_trend":"最新のトレンドをご覧ください",
"entering_contest":"コンテストへの参加",
"create_trend":"トレンドを作成",
"rules_regulations":"規則と規制：",
"entry_deadline":"応募締め切り：",
"about_me":"私について",
"what_is_your_education":"あなたの教育は何ですか？",
"what_is_your_interest":"あなたの興味は何ですか",
"what_is_your_links_and_websites":"あなたのリンクとウェブサイトは何ですか？",
"religion":"宗教",
"edit":"編集",
"gender":"性別",
"Public":"公",
"Private":"民間",
"friends":"友だち",
"folder":"フォルダ",
"create_new_folder":"新しいフォルダーを作成",
"select_all":"すべて選択",
"add_photo":"写真を追加",
"take_photo":"写真を撮る",
"choose_from_library":"ライブラリから選択",
"storage_permission_is_required_in_order_to_set_profile_photo":"プロフィール写真を設定するには、保管許可が必要です",
"please_provide_storage_permission_to_access_images":"画像にアクセスするためのストレージ許可を提供してください",
"old_password":"以前のパスワード",
"new_password":"新しいパスワード",
"change_password":"パスワードを変更する",
"readotp":"ReadOtp",
"verification":"検証",
"enter_the_verification_code":"確認コードを入力してください",
"resend_verification_code":"確認コードを再送します",
"about_cannot_be_empty":"については空にできません",
"education_cannot_be_empty":"教育は空にすることはできません",
"interest_cannot_be_empty":"興味を空にすることはできません",
"religion_cannot_be_em":"宗教はemになれない",
"link_website_cannot_be_empty":"リンク/ウェブサイトを空にすることはできません",
"logged_in_successfully":"正常にログインしました",
"comment":"コメント",
"friends":"友だち",
"requests":"リクエスト",
"request":"要求",
"friend_suggestions":"友達の提案",
"message":"メッセージ",
"unblock":"ブロック解除",
"tap_to_log_in":"タップしてログイン",
"log_into_another_account":"別のアカウントにログインする",
"create_new_account":"新しいアカウントを作成する",
"welcome_to_trender_alert":"Trender Alertへようこそ、",
"skip":"スキップ",
"reset_password":"パスワードを再設定する",
"new_password_and_confirm_password_not_match":"新しいパスワードと確認パスワードが一致しません。",
"get_premium":"プレミアムを取得",
"friend_list":"友達リスト",
"friend_request":"友達リクエスト",
"friend_suggestions":"友達の提案",
"start_typing":"入力を開始します..",
"add_tag":"タグ付けする",
"groups":"グループ",
"create_group":"グループを作る",
"add_location":"場所を追加",
"please_enter_a_tag":"タグを入力してください",
"please_enter_location":"場所を入力してください",
"no":"番号",
"are_you_sure_you_want_to_remove_this_trend_alert":"このトレンドアラートを削除してもよろしいですか？",
"yes":"はい",
"trenders_tagged":"タグ付けされたトレンダー",
"tag_limit_per_alert_is_3":"アラートごとのタグ制限は3です",
"location_limit_per_alert_is_3":"アラートごとのロケーション制限は3です",
"edit_bio":"略歴を編集",
"add_a_comment":"コメントを追加...",
"trend_alerts":"トレンドアラート",
"status":"状態",
"image":"画像",
"video":"ビデオ",
"are_you_sure_you_want_to_delete":"消去してもよろしいですか",
"please_add_alert_preference":"アラート設定を追加してください。",
"take_video":"ビデオを撮る",
"please_wait":"お待ちください...",
"permission_denied":"アクセス拒否。",
"session_expired_please_login":"セッションの有効期限が切れました。ログインしてください",
"you_need_to_be_16_to_sign_up":"サインアップするには16歳以上である必要があります。",
"can_t_delete_an_empty_trend_alert":"空のトレンドアラートを削除できません",
"type_a_status":"ステータスを入力",
"closed":"閉まっている",
"secret":"秘密の",
"any_one_can_find_the_group_see_who_is_in_it_and_what_they_post":"誰でもグループを見つけて、誰がグループにいて、何を投稿しているかを確認できます",
"anyone_can_search_the_group_only_member_can_see_who_is_in_it_and_what_they_post":"誰でもグループを検索できます。メンバーのみ が、誰が参加していて何を投稿しているかを見ることができます",
"only_member_can_search_for_group_see_members_and_there_post":"メンバーのみがグループを検索し、メンバーを表示してそこに投稿できます。",
"select_privacy":"プライバシーを選択",
"trend_created_successfully":"トレンドが作成されました",
"folder_name":"フォルダ名",
"share":"シェア",
"share_external":"外部共有",
"favorite":"お気に入り",
"unfavorite":"好きではない",
"turn_off_post_notifications":"投稿通知をオフにする",
"report":"報告書",
"save_to_folder":"フォルダーに保存",
"delete_trend":"トレンドを削除",
"edit_trend":"トレンドを編集",
"Description":"説明",
"anyone_can_search_the_group_amp_what_they_post":"誰でもグループ＆amp;を検索できます彼らが投稿するもの。",
"trend_setters":"トレンドセッター",
"expires_in":"期限切れ",
"please_add_a_comment":"コメントを追加してください",
"write_a_reply":"返事を書く..",
"please_add_a_reply":"返信を追加してください。",
"are_you_sure_you_want_to_delete_comment":"コメントを削除してもよろしいですか？",
"confirmation":"確認",
"are_you_sure_you_want_to_delete_reply":"返信を削除してもよろしいですか？",
"update":"更新",
"edit":"編集",
"liked":"気に入った",
"all":"すべて",
"messages":"メッセージ",
"notifications":"通知",
"no_notifications_found":"通知が見つかりません",
"following":"以下",
"search_gif":"GIFを検索",
"hold_to_record_nrelease_to_send":"記録を保留します。\n リリースを送信します。",
"are_you_sure_you_want_to_send_this_audio_message":"この音声メッセージを送信してもよろしいですか？",
"cancel":"キャンセル",
"have_sent_an_audio_reply":"音声返信を送信しました。",
"block":"ブロック",
"unfriend":"友達を外す",
"search_by_name":"名前で検索",
"say_something_about_this":"これについて何かを言う",
"share_now":"今すぐ共有",
"nudity":"ヌード",
"violence":"暴力",
"harassment":"嫌がらせ",
"suicide_or_self_injury":"自殺または自傷",
"false_news":"偽ニュース",
"spam":"スパム",
"unauthorised_sales":"不正販売",
"hate_speech":"ヘイトスピーチ",
"terrorism":"テロ",
"incorrect_voting_information":"間違った投票情報",
"reporting_trend":"報告トレンド",
"use_camera":"カメラを使用",
"upload_from_gallery":"ギャラリーからアップロード",
"add_photo":"写真を追加",
"remove_photo":"写真を削除",
"create_new_folder":"新しいフォルダーを作成",
"please_select_folder":"フォルダを選択してください",
"about_this_group":"このグループについて",
"view_group_info":"グループ情報を表示",
"history":"歴史",
"type_your_message":"メッセージを入力してください...",
"search_by_name":"名前で検索",
"search_name":"検索名",
"add_friends_to_tag":"友達をタグに追加",
"shared":"共有した",
"s_trend":"のトレンド",
"people_who_liked":"好きな人",
"people_who_shared":"共有した人",
"people_who_viewd":"見た人",
"share":"シェア",
"this_feature_is_for_premium_members_only":"この機能はプレミアム会員専用です。",
"buy_a_premium_package_if_you_wish_to_add_more_trend_preference":"トレンド設定をさらに追加する場合は、プレミアムパッケージを購入してください。",
"sorry_you_can_t_add_more_trend_preference_maximum_limit_for_adding_trend_preference_is_reached":"申し訳ありませんが、これ以上トレンド設定を追加することはできません。トレンド設定を追加するための最大制限に達しました",
"please_add_a_message":"メッセージを追加してください。",
"public_group":"パブリックグループ",
"closed_group":"クローズドグループ",
"secret_group":"シークレットグループ",
"add_video":"ビデオを追加",
"clear_chat":"チャットをクリア",
"search_people":"人を検索",
"people":"人",
"tags":"タグ",
"places":"場所",
"are_you_sure_you_want_to_block":"ブロックしてもよろしいですか",
"contest_list":"コンテスト一覧",
"posted_trends":"投稿されたトレンド",
"no_contests_found":"コンテストは見つかりませんでした",
"monthly_contest":"月例コンテスト",
"contest":"コンテスト",
"prize":"賞",
"contest_winner_list":"コンテスト優勝者リスト",
"contest_winners":"コンテスト受賞者",
"search_winner":"検索の勝者",
"no_data_found":"何もデータが見つかりませんでした。",
"entry_fee":"入場料",
"contest_details":"コンテストの詳細",
"save_profile":"プロファイルを保存",
"quick_tips":"クイックヒント",
"trend_alert_tag_prefrences_upto_5_tags":"トレンドアラートタグは最大5つのタグを優先します",
"upload_upto_15_images_status":"最大15画像/ステータスをアップロード",
"upload_1_video_with_max_size_256mb":"最大サイズ256MBの動画を1つアップロードします",
"trend_last_upto_90_days":"トレンドは最大90日間続きます",
"access_to_your_friend_list_and_groups":"友達リストとグループへのアクセス。",
"view_profile":"プロフィールを見る",
"are_you_sure_you_want_to_clear_this_chat":"このチャットをクリアしてもよろしいですか？",
"search_tag":"検索タグ",
"no_internet_connection":"インターネット接続なし。",
"search_trend":"検索トレンド",
"miles_5":"5マイル",
"accept":"受け入れる",
"miles_20":"20マイル",
"miles_50":"50マイル",
"miles_100":"100マイル",
"trender_travel":"トレンダー旅行",
"trend_detail":"トレンド詳細",
"no_trends_found":"トレンドは見つかりませんでした。",
"turn_off_to_type_new_location":"オフにして新しい場所を入力します。",
"contest_trend_post_list":"コンテストのトレンド投稿リスト",
"blocklist":"ブロックリスト",
"join_group":"グループに参加",
"no_data_available":"データなし",
"about_this_group":"このグループについて",
"member_not_available":"メンバーは利用できません",
"admin_not_available":"管理者は利用できません",
"see_all":"すべてを見る",
"edit_group_detail":"グループの詳細を編集",
"message_token":"メッセージトークン",
"alert_settings":"アラート設定",
"when_on_trender_alert":"トレンダーアラートの場合：",
"get_notification_from_everwhere":"どこからでも通知を受け取る",
"only_people_you_follow":"フォローしている人だけ",
"only_people_following_you":"あなたをフォローしている人だけ",
"gets_a_heads_up_notify_when_someone":"誰かが次の場合にヘッズアップ/通知を受け取ります：",
"likes_your_trends":"あなたのトレンドが好き",
"follow_your_trends":"トレンドをフォロー",
"comment_on_your_trends":"傾向についてコメントする",
"send_a_message":"メッセージを送ります：",
"turn_on":"オンにする",
"text_chat":"テキストチャット",
"audio_chat":"音声チャット",
"save_setting":"設定を保存",
"ad_url_will_open_in_external_browser":"広告URL（外部ブラウザで開きます）",
"bussines_name":"タマン名",
"bussines_type":"タマンタイプ",
"duration_of_ad":"広告の期間",
"placement_prefrences":"配置プリフレンス",
"pay":"支払う",
"contest_payment":"コンテストの支払い",
"are_you_sure_you_want_to_delete_this_messages":"このメッセージを削除してもよろしいですか？",
"active_now":"今すぐアクティブ",
"online":"オンライン",
"this_message_was_deleted":"このメッセージは削除されました",
"last_seen":"最後に見たのは",
"advertisement_list":"広告リスト",
"pending":"保留中",
"approved":"承認済み",
"rejected":"拒否されました",
"business_account_details":"ビジネスアカウントの詳細",
"activity":"アクティビティ",
"content":"コンテンツ",
"audience":"聴衆",
"business_account":"ビジネスアカウント",
"interactions":"相互作用",
"profile_visits":"プロフィール訪問",
"discovery":"発見",
"reach":"リーチ",
"impression":"印象",
"top_locations":"上位の場所",
"cities":"都市",
"countries":"国",
"age":"年齢",
"men":"男性",
"women":"女性たち",
"what_are_interactions":"インタラクションとは何ですか？",
"this_set_of_insights_measures_the_actions_people_take_when_they_engage_with_your_account":"この一連の洞察は、ユーザーがアカウントを操作したときに実行するアクションを測定します。",
"the_number_of_times_your_profile_was_viewed":"プロフィールが表示された回数。",
"what_is_discovery":"ディスカバリーとは？",
"this_set_of_insights_measures_how_many_people_see_your_content_and_where_they_find_it":"この一連の洞察は、あなたのコンテンツを見た人の数と、どこで見つけたかを測定します",
"the_number_of_unique_accounts_that_have_seen_any_of_your_posts_the_reach_metric_is_an_estimate_and_may_not_be_exact":"投稿を見たユニークアカウントの数。リーチメトリックは推定値であり、正確ではない場合があります。",
"the_total_number_of_times_all_of_your_posts_have_been_seen":"すべての投稿が表示された合計回数。",
"feed_posts":"フィード投稿",
"see_all":"すべてを見る",
"change_language":"言語を変えてください",
"chinese":"中国語",
"spanish":"スペイン語",
"english":"英語",
"hindi":"ヒンディー語",
"arabic":"アラビア語",
"portuguese":"ポルトガル語",
"bengali":"ベンガル語",
"russian":"ロシア",
"japanese":"日本語",
"german":"ドイツ人",
"ascending":"上昇",
"descending":"降順",
"start_Date":"開始日",
"tap_To_stop_recording_audio":"音声の録音を停止するには",
"gallery":"ギャラリー",
"camera":"カメラ",
"please_select_your_option":"オプションを選択してください",
"Write_a_reply":"返事を書く...",
"sorting":"仕分け",
"Requested":"要求された",
"follow":"フォロー",
"are_you_sure_you_want_to_send_this_audio_message":"この音声メッセージを送信してもよろしいですか？",
"ok":"はい",
"turn_off_post_notifications":"投稿通知をオフにする",
"view":"見る",
"Are_you_sure_you_want_to_delete_this_trend":"この音声メッセージを送信してもよろしいですか？",
"You_can_not_add_more_than_3_locations":"3つを超える場所を追加することはできません。",
"You_can_not_add_more_than_3_tags":"3つを超えるタグを追加することはできません。",
"Add_new":"新しく追加する",
"hour":"時",
"You_can_select_only_15_images_or_status":"15個の画像またはステータスのみを選択できます！",
"To_upload_more_get_premium_package":"さらにアップロードするには、プレミアムパッケージを入手してください！",
"You_can_select_only_1_video":"選択できるビデオは1つだけです！",
"create_folder":"フォルダーを作る",
"no_friends_found":"友達が見つかりません",
"search":"調べる",
"total_trends":"トータルトレンド",
"Premium_Package":"プレミアムパッケージ",
"Ability_to_enter_monthly_contest":"毎月のコンテストに参加する能力。",
"Transaction_ID":"トランザクションID",
"Purchase_Date":"購入日",
"Payment_Details":"支払詳細",
"invite_contact_info":"ユーザーがTrender Alertに接続できるように、連絡先を定期的に同期してサーバーに保存するよう選択できます。招待する連絡先を選択します。いつでも切断して同期を停止できます。",
"invite_friends":"友達を招待",
"invite_join":"TrenderAlertに参加する",
"Get_Started":"始めましょう",
"No_winner_declared_yet":"勝者はまだ宣言されていません",
"No_trend_posted_yet":"トレンドはまだ投稿されていません",
"Advertise_List":"広告リスト",
"created_on":"作成日",
"create_ad":"広告を作成",
"add_imgs_or_video":"画像またはビデオを追加する",
"Duration_of_ad":"広告の期間（日数）",
"no_record_found":"レコードが見つかりません",
"What_is_discovery":"発見とは？",
"discovery_title_info":"この一連の洞察は、何人のユーザーがあなたのコンテンツを見て、どこでそれを見つけたかを測定します",
"reach_Info":"投稿を見たユニークアカウントの数。リーチメトリックは推定値であり、正確ではない場合があります。",
"What_are_Interactions":"相互作用とは何ですか？",
"links_and_websites":"この一連の洞察は、ユーザーがアカウントに関与したときに実行するアクションを測定します。",
"trend_views":"トレンドビュー",
"views_info":"トレンドが表示された回数。",
"Trend_Interactions":"トレンドインタラクション",
"Profile_visits_on_your_account":"アカウントでのアクセスのプロファイル",
"top_locations":"上位の場所",
"home":"ホーム",
"Go_premium":"プレミアムへ",
"Languages":"言語",
"Likes":"いいね",
"links_and_websites":"リンクとウェブサイト",
"profile":"プロフィール",
"read_more":"続きを読む",
"read_less":"少なく読む",
"trend_setter":"トレンドセッター",
"first_name":"ファーストネーム",
"last_name":"苗字",
"birth_date":"生年月日（MM / DD / YYYY）",
"mobileNo":"携帯電話番号",
"Unfollow":"フォロー解除",
"FOLLOW":"フォロー",
"add_Friend":"友人を追加する",
"remove":"削除する",
"aceept":"受け入れる",
"All_Group_Members":"すべてのグループメンバー",
"Unmute_Member":"メンバーのミュートを解除",
"mute_member":"メンバーをミュート",
"make_admin":"管理者を作ります",
"remove_member":"メンバーを削除",
"Are_you_sure_you_want_to_unmute_this_user":"このユーザーのミュートを解除してもよろしいですか？",
"Are_you_sure_you_want_to_mute_this_user":"このユーザーをミュートしてもよろしいですか？",
"TrenderAlert":"TrenderAlert",
"Are_you_sure_you_want_to_remove_this_user":"このユーザーを削除してもよろしいですか？",
"add_group_members":"グループメンバーを追加する",
"please_select_member":"メンバーを選択してください",
"send_request":"リクエストを送信",
"Joined":"参加しました",
"Group_Description":"グループの説明",
"Group_Name_is_required":"グループ名が必要です。",
"search_group":"検索グループ",
"secret_group_info":"誰でもグループを検索できます。メンバーのみがグループ内のメンバーと投稿内容を見ることができます。",
"Please_select_privacy_option":"プライバシーオプションを選択してください。",
"Group_details":"グループの詳細",
"reject":"拒否する",
"accept_reject_request":"このグループに参加するには、リクエストを承認または拒否します。",
"Group_Request_Action":"グループ要求アクション",
"leave":"去る",
"Are_you_sure_you_want_to_leave_this_group":"このグループから脱退してもよろしいですか？",
"leave_group_info":"あなたはこのグループの最後のメンバーです。グループを退会すると、このグループは削除されます。",
"group":"グループ",
"post":"役職",
"interaction_title_info":"この一連の洞察は、ユーザーがアカウントに関与したときに実行するアクションを測定します。",
"turn_on_post_notifications":"投稿通知をオンにする",
"Welcome_to_TrenderAlert":"TrenderAlertへようこそ",
"welcomeInfo":"フォローする人を見つけて、写真やトレンドの共有を開始します。ユーザー名はいつでも変更できます。",
"interaction_title_info":"この一連の洞察は、ユーザーがアカウントに関与したときに実行するアクションを測定します。",
"My_Groups":"私のグループ",
"Groups_Suggestion": "グループの提案",
"Confirm":"確認する"
}
