{
"something_went_wrong_please_try_again_later":"Ocorreu um erro.Tente novamente mais tarde",
"like":"Gostar",
"reply":"Resposta",
"write_a_comment":"Escreva um comentário...",
"set_username":"Definir nome de usuário",
"pick_username_for_your_account_you_can_always_change_it_later":"Escolha o nome de usuário para sua conta.Você sempre pode mudar depois.",
"username":"Nome de usuário",
"next":"Próximo",
"change_username":"Mudar nome de usuário",
"Find_people_to_follow_and_start_sharing_photos_and_trends_You_can_change_your_username_anytime":"Encontre pessoas para seguir e comece a compartilhar fotos e tendências. Você pode alterar seu nome de usuário a qualquer momento.",
"edit_profile":"Editar Perfil",
"create_folder":"Criar pasta",
"follow":"Segue",
"expires_in":"Expira em",
"ago":"Atrás",
"tag":"Etiqueta, rótulo, palavra-chave",
"location":"Localização",
"delete":"Excluir",
"don_t_have_an_account":"Não possui uma conta?",
"sign_up":"INSCREVER-SE",
"login":"Conecte-se",
"forgot_your_password":"Esqueceu sua senha",
"enter_your_email_address_or_mobile_number_below_to_receive_your_password_reset_instruction":"Digite seu endereço de e-mail ou número de celular abaixo para receber suas instruções de redefinição de senha",
"save":"Salve ",
"forgot_password":"ESQUECEU A SENHA",
"send":"Enviar",
"email_address_mobile_no":"Endereço de E-mail / Celular Não",
"password":"Senha",
"confirm_password":"Confirme a Senha",
"already_have_an_account":"já tem uma conta?",
"by_joining_you_agree_to_the_terms_and_privacy":"Ao aderir, você concorda com os termos e a privacidade",
"confirm_password":"Confirme a Senha",
"last_name":"Último nome",
"first_name":"Primeiro nome",
"birth_date_mm_dd_yyyy":"Data de nascimento (MM / DD / AAAA)",
"tap_here_to_choose_your_profile_picture":"Toque aqui para escolher sua foto de perfil",
"name_this_group":"Nomeie este grupo ...",
"group_description":"descrição do grupo",
"mobile_number":"Número de celular",
"trend_alerts":"Alertas de tendência",
"trender_travel":"Trender Travel",
"friends":"Amigos",
"groups":"Grupos",
"go_premium":"Go Premium",
"invite_contacts":"Convidar contatos",
"languages":"línguas",
"switch_to_business_account":"Mudar para a conta comercial",
"terms_services":"Termos e Serviços",
"contact_us":"Contate-Nos",
"about_this_app":"Sobre este aplicativo",
"create_advertisement":"Criar anúncio",
"logout":"Sair",
"settings":"Configurações",
"post_trend":"POST TREND",
"about":"Sobre",
"discussion":"Discussão",
"add":"Adicionar, acrescentar",
"members":"Membros",
"friends":"Amigos",
"trender":"Trender",
"my_trends":"Minhas Tendências",
"favorite":"Favorito",
"my_favorite":"Meu favorito",
"admins":"Admins",
"what_is_your_links_and_websites":"Quais são os seus links e sites?",
"interest":"Interesse",
"education":"Educação",
"male":"Masculino",
"female":"Fêmea",
"open":"abrir",
"close":"Fechar",
"hours":"Horas",
"days":"Dias",
"please_enter_valid_email_address":"Por favor insira o endereço de e-mail válido.",
"password_cannot_be_empty":"A senha não pode estar vazia.",
"password_cannot_be_less_then_6_characters":"A senha não pode ter menos de 6 caracteres.",
"please_enter_valid_password":"Digite uma senha válida",
"password_did_not_match":"A senha não corresponde.",
"first_name_cannot_be_empty":"O primeiro nome não pode estar vazio.",
"last_name_cannot_be_empty":"O sobrenome não pode estar vazio.",
"birthday_cannot_be_empty":"O aniversário não pode estar vazio.",
"location_cannot_be_empty":"O local não pode estar vazio.",
"please_enter_valid_location":"Digite um local válido",
"contact_cannot_be_empty":"O contato não pode estar vazio",
"please_enter_valid_contact_number":"Digite um número de contato válido",
"please_enter_valid_email_address_mobile_no_username":"Digite um endereço de email válido / número de celular / nome de usuário",
"please_enter_valid_email_address_or_mobile_no":"Digite o endereço de e-mail ou número de celular válido",
"choose_trend_type":"Escolha o tipo de tendência",
"permission":"Permissão",
"text":"Texto",
"audio":"Áudio",
"location":"Localização",
"tag_trenders":"Tag Trenders",
"description":"Descrição",
"title":"Título",
"check_out_my_latest_trend":"Confira minha última tendência",
"entering_contest":"ENTRANDO NO CONCURSO",
"create_trend":"CRIAR TENDÊNCIA",
"rules_regulations":"Regras",
"entry_deadline":"Prazo para inscrição",
"about_me":"Sobre mim",
"what_is_your_education":"Qual é a sua educação?",
"what_is_your_interest":"Qual é o seu interesse",
"what_is_your_links_and_websites":"Quais são os seus links e sites?",
"religion":"Religião",
"edit":"Editar",
"gender":"Gênero",
"Public":"Público",
"Private":"Privado",
"friends":"Amigos",
"folder":"Pasta",
"create_new_folder":"Criar nova pasta",
"select_all":"Selecionar tudo",
"add_photo":"Adicionar foto",
"take_photo":"Tirar fotos",
"choose_from_library":"Escolha da Biblioteca",
"storage_permission_is_required_in_order_to_set_profile_photo":"É necessária permissão de armazenamento para definir a foto do perfil",
"please_provide_storage_permission_to_access_images":"Forneça permissão de armazenamento para acessar imagens",
"old_password":"Senha Antiga",
"new_password":"Nova senha",
"change_password":"Mudar senha",
"readotp":"ReadOtp",
"verification":"Verificação",
"enter_the_verification_code":"Insira o código de verificação",
"resend_verification_code":"Reenviar código de verificação",
"about_cannot_be_empty":"Sobre não pode estar vazio",
"education_cannot_be_empty":"A educação não pode estar vazia",
"interest_cannot_be_empty":"O interesse não pode estar vazio",
"religion_cannot_be_em":"A religião não pode ser em",
"link_website_cannot_be_empty":"O link / site não pode estar vazio",
"logged_in_successfully":"Conectado com sucesso",
"comment":"Comente",
"friends":"Amigos",
"requests":"solicitações de",
"request":"Solicitação",
"friend_suggestions":"Sugestões de Amigos",
"message":"mensagem",
"unblock":"Desbloquear",
"tap_to_log_in":"Toque para entrar",
"log_into_another_account":"Entrar em outra conta",
"create_new_account":"Criar nova conta",
"welcome_to_trender_alert":"Bem-vindo ao Trender Alert,",
"skip":"Pular",
"reset_password":"Redefinir senha",
"new_password_and_confirm_password_not_match":"Nova senha e Confirmar senha não coincidem.",
"get_premium":"Obter Premium",
"friend_list":"Lista de amigos",
"friend_request":"Pedido de amizade",
"friend_suggestions":"Sugestões de Amigos",
"start_typing":"Começe a digitar ..",
"add_tag":"Adicionar etiqueta",
"groups":"Grupos",
"create_group":"Criar grupo",
"add_location":"Adicionar local",
"please_enter_a_tag":"Digite uma tag",
"please_enter_location":"Digite a localização",
"no":"Não",
"are_you_sure_you_want_to_remove_this_trend_alert":"Tem certeza de que deseja remover este alerta de tendência?",
"yes":"sim",
"trenders_tagged":"Tendências",
"tag_limit_per_alert_is_3":"O limite de tags por alerta é 3",
"location_limit_per_alert_is_3":"O limite de localizações por alerta é 3",
"edit_bio":"Editar biografia",
"add_a_comment":"Adicione um comentário...",
"trend_alerts":"Alertas de tendência",
"status":"Status",
"image":"Imagem",
"video":"Vídeo",
"are_you_sure_you_want_to_delete":"Tem certeza de que deseja excluir",
"please_add_alert_preference":"Por favor, adicione a preferência de alerta.",
"take_video":"Fazer vídeo",
"please_wait":"Por favor, espere...",
"permission_denied":"Permissão negada.",
"session_expired_please_login":"Sessão expirada.",
"you_need_to_be_16_to_sign_up":"Você precisa ter mais de 16 anos para se inscrever.",
"can_t_delete_an_empty_trend_alert":"Não é possível excluir um alerta de tendência vazio",
"type_a_status":"Digite um status",
"closed":"Fechadas",
"secret":"Segredo",
"any_one_can_find_the_group_see_who_is_in_it_and_what_they_post":"Qualquer um pode encontrar o grupo, ver quem está nele e o que eles postam",
"anyone_can_search_the_group_only_member_can_see_who_is_in_it_and_what_they_post":"Qualquer um pode pesquisar no grupo.Somente um membro pode ver quem está nele e o que eles postam",
"only_member_can_search_for_group_see_members_and_there_post":"Apenas um membro pode procurar um grupo, ver membros e postar.",
"select_privacy":"Selecione Privacidade",
"trend_created_successfully":"Tendência criada com sucesso",
"folder_name":"Nome da pasta",
"share":"Compartilhar",
"share_external":"Compartilhar Externa",
"favorite":"Favorito",
"unfavorite":"Desfavorável",
"turn_off_post_notifications":"Desativar notificações de postagem",
"report":"Relatório",
"save_to_folder":"Salvar na pasta",
"delete_trend":"Excluir tendência",
"edit_trend":"Editar tendência",
"Description":"Descrição",
"anyone_can_search_the_group_amp_what_they_post":"Qualquer um pode pesquisar o grupo & amp;O que eles postam.",
"trend_setters":"Setters de tendências",
"expires_in":"Expira em",
"please_add_a_comment":"Adicione um comentário",
"write_a_reply":"Escreva uma resposta..",
"please_add_a_reply":"Adicione uma resposta.",
"are_you_sure_you_want_to_delete_comment":"Tem certeza de que deseja excluir o comentário?",
"confirmation":"Confirmação",
"are_you_sure_you_want_to_delete_reply":"Tem certeza de que deseja excluir a resposta?",
"update":"Atualizar",
"edit":"Editar",
"liked":"Gostei",
"all":"Tudo",
"messages":"Mensagens",
"notifications":"Notificações",
"no_notifications_found":"Nenhuma notificação encontrada",
"following":"Segue",
"search_gif":"Pesquisar GIF",
"hold_to_record_nrelease_to_send":"Mantenha pressionado para gravar. Ligue para enviar.",
"are_you_sure_you_want_to_send_this_audio_message":"Tem certeza de que deseja enviar esta mensagem de áudio?",
"cancel":"Cancelar",
"have_sent_an_audio_reply":"enviou uma resposta em áudio.",
"block":"Quadra",
"unfriend":"Anular",
"search_by_name":"Procura por nome",
"say_something_about_this":"Diga algo sobre isto",
"share_now":"Compartilhe agora",
"nudity":"Nudez",
"violence":"Violência",
"harassment":"Assédio",
"suicide_or_self_injury":"Suicídio ou auto-lesão",
"false_news":"Notícias falsas",
"spam":"Spam",
"unauthorised_sales":"Vendas não autorizadas",
"hate_speech":"Discurso de ódio",
"terrorism":"Terrorismo",
"incorrect_voting_information":"Informações de votação incorretas",
"reporting_trend":"Tendência de relatórios",
"use_camera":"Use Camera",
"upload_from_gallery":"Carregar da Galeria",
"add_photo":"Adicionar foto",
"remove_photo":"Remover foto",
"create_new_folder":"Criar nova pasta",
"please_select_folder":"Por favor, selecione a pasta",
"about_this_group":"Sobre este grupo",
"view_group_info":"Ver informações do grupo",
"history":"História",
"type_your_message":"Digite sua mensagem...",
"search_by_name":"Procura por nome",
"search_name":"Nome da pesquisa",
"add_friends_to_tag":"Adicione amigos para marcar",
"shared":"compartilhado",
"s_trend":"tendência de",
"people_who_liked":"Pessoas que gostaram",
"people_who_shared":"Pessoas que compartilharam",
"people_who_viewd":"Pessoas que visualizaram",
"share":"Compartilhar",
"this_feature_is_for_premium_members_only":"Esse recurso é apenas para membros premium.",
"buy_a_premium_package_if_you_wish_to_add_more_trend_preference":"Compre um pacote Premium se desejar adicionar mais preferências de tendência.",
"sorry_you_can_t_add_more_trend_preference_maximum_limit_for_adding_trend_preference_is_reached":"Desculpe, você não pode adicionar mais preferências de tendência. O limite máximo para adicionar preferência de tendência é atingido",
"please_add_a_message":"Adicione uma mensagem.",
"public_group":"Grupo Público",
"closed_group":"Grupo Fechado",
"secret_group":"Grupo Secreto",
"add_video":"Adicionar vídeo",
"clear_chat":"Limpar conversa",
"search_people":"Pesquisar Pessoas",
"people":"Pessoas",
"tags":"Tag",
"places":"Lugares",
"are_you_sure_you_want_to_block":"Tem certeza de que deseja bloquear",
"contest_list":"Lista de concursos",
"posted_trends":"Tendências publicadas",
"no_contests_found":"Não foram encontrados concursos",
"monthly_contest":"Concurso Mensal",
"contest":"Concurso",
"prize":"Prêmio",
"contest_winner_list":"Lista de vencedores do concurso",
"contest_winners":"Vencedores do concurso",
"search_winner":"Vencedor da pesquisa",
"no_data_found":"Nenhum dado encontrado.",
"entry_fee":"Taxa de entrada",
"contest_details":"Detalhes do concurso",
"save_profile":"Salvar perfil",
"quick_tips":"Dicas rápidas",
"trend_alert_tag_prefrences_upto_5_tags":"A tag Alerta de tendência prefere até 5 tags",
"upload_upto_15_images_status":"Carregar até 15 imagens / status",
"upload_1_video_with_max_size_256mb":"Carregar 1 vídeo com tamanho máximo de 256 MB",
"trend_last_upto_90_days":"A tendência dura até 90 dias",
"access_to_your_friend_list_and_groups":"Acesse sua lista de amigos e grupos.",
"view_profile":"Ver perfil",
"are_you_sure_you_want_to_clear_this_chat":"Tem certeza de que deseja limpar este bate-papo?",
"search_tag":"Tag de pesquisa",
"no_internet_connection":"Sem conexão à Internet.",
"search_trend":"Tendência de pesquisa",
"miles_5":"5 milhas",
"miles_20":"20 milhas",
"miles_50":"50 milhas",
"miles_100":"100 milhas",
"trender_travel":"Trender Travel",
"trend_detail":"Detalhe da tendência",
"no_trends_found":"Nenhuma tendência encontrada.",
"turn_off_to_type_new_location":"Desative para digitar o novo local.",
"contest_trend_post_list":"Lista de publicações de tendências do concurso",
"blocklist":"Lista de bloqueio",
"join_group":"Juntar-se ao grupo",
"no_data_available":"Não há dados disponíveis",
"about_this_group":"Sobre este grupo",
"member_not_available":"Membro não disponível",
"admin_not_available":"Admin não disponível",
"see_all":"Ver tudo",
"edit_group_detail":"Editar detalhes do grupo",
"message_token":"Token de mensagem",
"alert_settings":"Configurações de alerta",
"when_on_trender_alert":"Quando estiver no alerta do Trender",
"get_notification_from_everwhere":"Receba notificações do Everwhere",
"only_people_you_follow":"Somente pessoas que você segue",
"only_people_following_you":"Somente pessoas seguindo você",
"gets_a_heads_up_notify_when_someone":"É avisado quando alguém",
"likes_your_trends":"Gosta de suas tendências",
"follow_your_trends":"Siga suas tendências",
"comment_on_your_trends":"Comente suas tendências",
"send_a_message":"Envie uma mensagem",
"turn_on":"Ligar",
"text_chat":"Chat de texto",
"audio_chat":"Bate-papo por áudio",
"save_setting":"Salvar configuração",
"ad_url_will_open_in_external_browser":"URL do anúncio (será aberto no navegador externo)",
"bussines_name":"Nome do negócio",
"bussines_type":"Tipo de negócio",
"duration_of_ad":"Duração do anúncio",
"placement_prefrences":"Preferência de veiculação",
"pay":"Pagar",
"contest_payment":"Pagamento do Concurso",
"are_you_sure_you_want_to_delete_this_messages":"Tem certeza de que deseja excluir essas mensagens?",
"active_now":"Ativo agora",
"online":"Conectados",
"this_message_was_deleted":"Esta mensagem foi apagada",
"last_seen":"Visto pela última vez",
"advertisement_list":"Lista de anúncios",
"pending":"Pendente",
"approved":"Aprovado",
"rejected":"Rejeitado",
"business_account_details":"Detalhes da conta comercial",
"activity":"Atividade",
"content":"Conteúdo",
"audience":"Público",
"business_account":"Conta de negócios",
"interactions":"Interações",
"profile_visits":"Visitas ao perfil",
"discovery":"Descoberta",
"reach":"Alcance",
"impression":"Impressão",
"top_locations":"Locais principais",
"cities":"Cidades",
"countries":"Países",
"age":"Era",
"men":"Homens",
"women":"Mulheres",
"what_are_interactions":"O que são interações?",
"this_set_of_insights_measures_the_actions_people_take_when_they_engage_with_your_account":"Esse conjunto de informações mede as ações que as pessoas tomam quando se envolvem com sua conta.",
"the_number_of_times_your_profile_was_viewed":"O número de vezes que seu perfil foi visualizado.",
"what_is_discovery":"O que é o Discovery?",
"this_set_of_insights_measures_how_many_people_see_your_content_and_where_they_find_it":"Esse conjunto de informações mede quantas pessoas veem seu conteúdo e onde o encontram.",
"the_number_of_unique_accounts_that_have_seen_any_of_your_posts_the_reach_metric_is_an_estimate_and_may_not_be_exact":"O número de contas únicas que viram qualquer uma das suas postagens. A métrica de alcance é uma estimativa e pode não ser exata.",
"the_total_number_of_times_all_of_your_posts_have_been_seen":"O número total de vezes que todas as suas postagens foram vistas.",
"feed_posts":"Publicações do feed",
"see_all":"Ver tudo",
"change_language":"Mudar idioma",
"chinese":"chinês",
"spanish":"espanhol",
"english":"Inglês",
"hindi":"hindi",
"arabic":"árabe",
"portuguese":"Português",
"bengali":"bengali",
"russian":"russo",
"japanese":"japonês",
"german":"alemão",
"ascending":"Crescente",
"descending":"descendente",
"start_Date":"Data de início",
"tap_To_stop_recording_audio":"Toque em Para parar a gravação de áudio",
"gallery":"Galeria",
"camera":"Câmera",
"please_select_your_option":"Por favor selecione sua opção",
"Write_a_reply":"Escreva uma resposta...",
"sorting":"Ordenação",
"Requested":"Requeridos",
"follow":"Segue",
"are_you_sure_you_want_to_send_this_audio_message":"Tem certeza de que deseja enviar esta mensagem de áudio?",
"ok":"OK",
"turn_off_post_notifications":"desativar as notificações de postagem",
"view":"Visão",
"Are_you_sure_you_want_to_delete_this_trend":"Tem certeza de que deseja enviar esta mensagem de áudio?",
"You_can_not_add_more_than_3_locations":"Você não pode adicionar mais de três locais.",
"You_can_not_add_more_than_3_tags":"Você não pode adicionar mais de três tags.",
"Add_new":"ADICIONAR NOVO",
"hour":"hr",
"You_can_select_only_15_images_or_status":"Você pode selecionar apenas 15 imagens ou status!",
"To_upload_more_get_premium_package":"Para carregar mais, obtenha o pacote premium!",
"You_can_select_only_1_video":"Você pode selecionar apenas 1 vídeo!",
"create_folder":"Criar pasta",
"no_friends_found":"Nenhum amigo encontrado",
"search":"Procurar",
"total_trends":"Tendências totais",
"Premium_Package":"Pacote Premium",
"Ability_to_enter_monthly_contest":"Capacidade de participar de concurso mensal.",
"Transaction_ID":"ID da transação",
"Purchase_Date":"data de compra",
"Payment_Details":"Detalhes do pagamento",
"invite_contact_info":"Para ajudar as pessoas a se conectarem no Trender Alert, você pode optar por ter seus contatos sincronizados e armazenados periodicamente em nossos servidores. Você escolhe quais contatos convidar. Desconecte a qualquer momento para interromper a sincronização.",
"invite_friends":"Convide amigos",
"invite_join":"participar do TrenderAlert",
"Get_Started":"Iniciar",
"No_winner_declared_yet":"Nenhum vencedor declarado ainda",
"No_trend_posted_yet":"Nenhuma tendência publicada ainda",
"Advertise_List":"Lista de publicidade",
"created_on":"Criado em",
"create_ad":"Criar um anúncio",
"add_imgs_or_video":"Adicionar imagens ou vídeo",
"Duration_of_ad":"Duração do anúncio (em dias)",
"no_record_found":"Nenhum Registro Encontrado",
"What_is_discovery":"O que é descoberta?",
"discovery_title_info":"Esse conjunto de informações mede quantas pessoas veem seu conteúdo e onde elas o encontram",
"reach_Info":"O número de contas únicas que viram qualquer uma das suas postagens. A métrica de alcance é uma estimativa e pode não ser exata.",
"What_are_Interactions":"O que são interações?",
"links_and_websites":"Esse conjunto de informações mede as ações que as pessoas tomam quando se envolveram com sua conta.",
"trend_views":"Visualizações de tendência",
"views_info":"O número de vezes que sua tendência foi visualizada.",
"Trend_Interactions":"Interações de tendência",
"Profile_visits_on_your_account":"Visitas ao perfil em sua conta",
"top_locations":"Locais principais",
"home":"Casa",
"Go_premium":"Go Premium",
"Languages":"línguas",
"Likes":"Curtidas",
"links_and_websites":"Links e sites",
"profile":"Perfil",
"read_more":"Consulte Mais informação",
"read_less":"Ler menos",
"trend_setter":"Trend Setter",
"first_name":"Primeiro nome",
"last_name":"Último nome",
"birth_date":"Data de nascimento (MM / DD / AAAA)",
"mobileNo":"Número de celular",
"Unfollow":"DEIXAR DE SEGUIR",
"FOLLOW":"SEGUE",
"ADD_FRIEND":"ADICIONAR AMIGO",
"remove":"RETIRAR",
"aceept":"ACEITAR",
"All_Group_Members":"Todos os membros do grupo",
"Unmute_Member":"Ativar som do membro",
"mute_member":"Mudo membro",
"make_admin":"Tornar administrador",
"remove_member":"Remover membro",
"Are_you_sure_you_want_to_unmute_this_user":"Tem certeza de que deseja ativar o som deste usuário?",
"Are_you_sure_you_want_to_mute_this_user":"Tem certeza de que deseja silenciar este usuário?",
"TrenderAlert":"TrenderAlert",
"Are_you_sure_you_want_to_remove_this_user":"Tem certeza de que deseja remover este usuário?",
"add_group_members":"Adicionar membros do grupo",
"please_select_member":"Por favor selecione membros",
"send_request":"Enviar pedido",
"Joined":"Juntou",
"Group_Description":"descrição do grupo",
"Group_Name_is_required":"O nome do grupo é obrigatório.",
"search_group":"Grupo de pesquisa",
"secret_group_info":"Qualquer pessoa pode pesquisar no grupo. Somente os membros podem ver quem está nele e o que eles postam.",
"Please_select_privacy_option":"Por favor, selecione a opção de privacidade.",
"Group_details":"Detalhes do grupo",
"reject":"Rejeitar",
"accept_reject_request":"Aceite ou Rejeite a Solicitação para ingressar neste grupo.",
"Group_Request_Action":"Ação de Solicitação de Grupo",
"leave":"Sair",
"Are_you_sure_you_want_to_leave_this_group":"Tem certeza de que deseja sair desse grupo?",
"leave_group_info":"Você é o último membro deste grupo. Se você sair do grupo, este grupo será excluído.",
"group":"Grupo",
"post":"Postar",
"add_Friend":"ADICIONAR AMIGO",
"interaction_title_info":"Esse conjunto de informações mede as ações que as pessoas tomam quando se envolveram com sua conta.",
"turn_on_post_notifications":"Ativar notificações de postagem",
"Welcome_to_TrenderAlert":"Bem-vindo ao TrenderAlert",
"welcomeInfo":"Encontre pessoas para seguir e começar a compartilhar fotos e tendências. Você pode alterar seu nome de usuário a qualquer momento.",
"interaction_title_info":"Esse conjunto de informações mede as ações que as pessoas tomam quando se envolveram com sua conta.",
"accept":"ACEITAR",
"My_Groups":"Meus Grupos",
"Groups_Suggestion": "Sugestão de Grupos",
"Confirm":"confirme"
}
