{
"something_went_wrong_please_try_again_later":"Что-то пошло не так. Пожалуйста, повторите попытку позже",
"like":"подобно",
"reply":"Ответить",
"write_a_comment":"Написать комментарий...",
"set_username":"Установить имя пользователя",
"pick_username_for_your_account_you_can_always_change_it_later":"Выберите имя пользователя для своей учетной записи. Вы всегда можете изменить это позже.",
"username":"имя пользователя",
"next":"следующий",
"change_username":"Изменение имени пользователя",
"Find_people_to_follow_and_start_sharing_photos_and_trends_You_can_change_your_username_anytime":"Найдите людей, чтобы следить и начать делиться фотографиями и тенденциями. Вы можете изменить свое имя пользователя в любое время.",
"edit_profile":"Редактировать профиль",
"create_folder":"Создать папку",
"follow":"следить",
"expires_in":"Истекает",
"ago":"Тому назад",
"tag":"Тег",
"location":"Место нахождения",
"delete":"удалять",
"don_t_have_an_account":"У вас нет аккаунта?",
"sign_up":"ЗАРЕГИСТРИРОВАТЬСЯ",
"login":"Авторизоваться",
"forgot_your_password":"Забыли свой пароль",
"enter_your_email_address_or_mobile_number_below_to_receive_your_password_reset_instruction":"Введите свой адрес электронной почты или номер мобильного телефона ниже, чтобы получить инструкцию по сбросу пароля",
"save":"Сохранить",
"forgot_password":"ЗАБЫЛ ПАРОЛЬ",
"send":"послать",
"email_address_mobile_no":"Адрес электронной почты / номер мобильного телефона",
"password":"пароль",
"confirm_password":"Подтвердить Пароль",
"already_have_an_account":"Уже есть аккаунт?",
"by_joining_you_agree_to_the_terms_and_privacy":"Присоединившись, вы соглашаетесь с условиями и конфиденциальностью",
"confirm_password":"Подтвердить Пароль",
"last_name":"Фамилия",
"first_name":"Имя",
"birth_date_mm_dd_yyyy":"Дата рождения (ММ / ДД / ГГГГ)",
"tap_here_to_choose_your_profile_picture":"Нажмите здесь, чтобы выбрать изображение профиля",
"name_this_group":"Назовите эту группу ...",
"group_description":"Описание группы",
"mobile_number":"Номер мобильного",
"trend_alerts":"Трендовые оповещения",
"trender_travel":"Трендер Трэвел",
"friends":"друзья",
"groups":"группы",
"go_premium":"Премиум",
"invite_contacts":"Пригласить контакты",
"languages":"Языки",
"switch_to_business_account":"Переключиться на бизнес аккаунт",
"terms_services":"Условия и Услуги",
"contact_us":"Свяжитесь с нами",
"about_this_app":"Об этом приложении",
"create_advertisement":"Создать рекламу",
"logout":"Выйти",
"settings":"настройки",
"post_trend":"ПОСТ ТРЕНД",
"about":"Около",
"discussion":"обсуждение",
"add":"Добавлять",
"members":"члены",
"friends":"друзья",
"trender":"Trender",
"my_trends":"Мои Тенденции",
"favorite":"любимец",
"my_favorite":"Мой любимый",
"admins":"Админы",
"what_is_your_links_and_websites":"Какие у вас ссылки и сайты?",
"interest":"Интерес",
"education":"образование",
"male":"мужчина",
"female":"женский",
"open":"открытый",
"close":"близко",
"hours":"часов",
"days":"дней",
"please_enter_valid_email_address":"Пожалуйста введите верный адрес электронной почты.",
"password_cannot_be_empty":"Пароль не может быть пустым.",
"password_cannot_be_less_then_6_characters":"Пароль не может быть менее 6 символов.",
"please_enter_valid_password":"Пожалуйста, введите действительный пароль",
"password_did_not_match":"Пароль не совпадает.",
"first_name_cannot_be_empty":"Имя не может быть пустым.",
"last_name_cannot_be_empty":"Фамилия не может быть пустой.",
"birthday_cannot_be_empty":"День рождения не может быть пустым.",
"location_cannot_be_empty":"Местоположение не может быть пустым.",
"please_enter_valid_location":"Пожалуйста, введите правильное местоположение",
"contact_cannot_be_empty":"Контакт не может быть пустым",
"please_enter_valid_contact_number":"Пожалуйста, введите действительный контактный номер",
"please_enter_valid_email_address_mobile_no_username":"Пожалуйста, введите действующий адрес электронной почты / номер мобильного телефона / имя пользователя",
"please_enter_valid_email_address_or_mobile_no":"Пожалуйста, введите действующий адрес электронной почты или номер мобильного телефона",
"choose_trend_type":"Выберите тип тренда",
"permission":"разрешение",
"text":"Текст",
"audio":"аудио",
"location":"Место нахождения",
"tag_trenders":"Tag Trenders",
"description":"Описание",
"title":"заглавие",
"check_out_my_latest_trend":"Проверьте мой последний тренд",
"entering_contest":"ВХОД КОНКУРСА",
"create_trend":"СОЗДАТЬ ТРЕНД",
"rules_regulations":"Правила и Положения",
"entry_deadline":"Срок подачи заявок",
"about_me":"Обо мне",
"what_is_your_education":"Кто ты по образованию ?",
"what_is_your_interest":"Что вас интересует",
"what_is_your_links_and_websites":"Какие у вас ссылки и сайты?",
"religion":"религия",
"edit":"редактировать",
"gender":"Пол",
"Public":"общественного",
"Private":"Частный",
"friends":"друзья",
"folder":"скоросшиватель",
"create_new_folder":"Создать новую папку",
"select_all":"Выбрать все",
"add_photo":"Добавить фото",
"take_photo":"Фотографировать",
"choose_from_library":"Выбрать из библиотеки",
"storage_permission_is_required_in_order_to_set_profile_photo":"Разрешение на хранение требуется для того, чтобы установить фотографию профиля",
"please_provide_storage_permission_to_access_images":"Пожалуйста, предоставьте разрешение на хранение для доступа к изображениям",
"old_password":"Прежний пароль",
"new_password":"новый пароль",
"change_password":"Измени пароль",
"readotp":"ReadOtp",
"verification":"верификация",
"enter_the_verification_code":"Введите проверочный код",
"resend_verification_code":"Отправить заново код подтверждения",
"about_cannot_be_empty":"О не может быть пустым",
"education_cannot_be_empty":"Образование не может быть пустым",
"interest_cannot_be_empty":"Интерес не может быть пустым",
"religion_cannot_be_em":"Религия не может быть их",
"link_website_cannot_be_empty":"Ссылка / Сайт не может быть пустым",
"logged_in_successfully":"Вы успешно вошли",
"comment":"Комментарий",
"friends":"друзья",
"requests":"Запросы",
"request":"Запрос",
"friend_suggestions":"Предложения друзей",
"message":"Сообщение",
"unblock":"открыть",
"tap_to_log_in":"Нажмите, чтобы войти",
"log_into_another_account":"Войти в другой аккаунт",
"create_new_account":"Создать новый аккаунт",
"welcome_to_trender_alert":"Добро пожаловать в Трендер Alert,",
"skip":"Пропускать",
"reset_password":"Сброс пароля",
"new_password_and_confirm_password_not_match":"Новый пароль и подтверждение пароля не совпадают.",
"get_premium":"Получи Премиум",
"friend_list":"Список друзей",
"friend_request":"Запрос в друзья",
"friend_suggestions":"Предложения друзей",
"start_typing":"Начните печатать ..",
"add_tag":"Добавить метку",
"groups":"группы",
"create_group":"Создать группу",
"add_location":"Добавить местоположение",
"please_enter_a_tag":"Пожалуйста, введите тег",
"please_enter_location":"Пожалуйста, введите местоположение",
"no":"нет",
"are_you_sure_you_want_to_remove_this_trend_alert":"Вы уверены, что хотите удалить это оповещение о трендах?",
"yes":"да",
"trenders_tagged":"Тренды с меткой",
"tag_limit_per_alert_is_3":"Максимальное количество тегов на предупреждение составляет 3",
"location_limit_per_alert_is_3":"Предел местоположения на оповещение составляет 3",
"edit_bio":"Редактировать био",
"add_a_comment":"Добавить комментарий...",
"trend_alerts":"Трендовые оповещения",
"status":"Статус",
"image":"Образ",
"video":"видео",
"are_you_sure_you_want_to_delete":"Вы уверены, что хотите удалить",
"please_add_alert_preference":"Пожалуйста, добавьте настройки оповещения.",
"take_video":"Взять видео",
"please_wait":"Пожалуйста, подождите...",
"permission_denied":"В доступе отказано.",
"session_expired_please_login":"Сессия истекла. Пожалуйста, войдите",
"you_need_to_be_16_to_sign_up":"Вы должны быть старше 16 лет, чтобы зарегистрироваться.",
"can_t_delete_an_empty_trend_alert":"Не удается удалить пустой тренд",
"type_a_status":"Введите статус",
"closed":"Закрыто",
"secret":"секрет",
"any_one_can_find_the_group_see_who_is_in_it_and_what_they_post":"Любой может найти группу, посмотреть, кто в ней и что они публикуют",
"anyone_can_search_the_group_only_member_can_see_who_is_in_it_and_what_they_post":"Любой может искать группу.Только участник может видеть, кто в нем и что они публикуют",
"only_member_can_search_for_group_see_members_and_there_post":"Только участник может искать группу, видеть участников и там сообщение.",
"select_privacy":"Выберите Конфиденциальность",
"trend_created_successfully":"Тренд создан успешно",
"folder_name":"Имя папки",
"share":"доля",
"share_external":"Поделиться внешним",
"favorite":"любимец",
"unfavorite":"Удалить из избранного",
"turn_off_post_notifications":"Отключить почтовые уведомления",
"report":"отчет",
"save_to_folder":"Сохранить в папку",
"delete_trend":"Удалить тренд",
"edit_trend":"Изменить тренд",
"Description":"Описание",
"anyone_can_search_the_group_amp_what_they_post":"Любой может найти группу & amp;Что они публикуют.",
"trend_setters":"Тендеры",
"expires_in":"Истекает",
"please_add_a_comment":"Пожалуйста, добавьте комментарий",
"write_a_reply":"Напишите ответ..",
"please_add_a_reply":"Пожалуйста, добавьте ответ.",
"are_you_sure_you_want_to_delete_comment":"Вы уверены, что хотите удалить комментарий?",
"confirmation":"подтверждение",
"are_you_sure_you_want_to_delete_reply":"Вы уверены, что хотите удалить ответ?",
"update":"Обновить",
"edit":"редактировать",
"liked":"Понравилось",
"all":"Все",
"messages":"Сообщения",
"notifications":"Уведомления",
"no_notifications_found":"Уведомления не найдены",
"following":"Следующий",
"search_gif":"Поиск GIF",
"hold_to_record_nrelease_to_send":"Удерживайте для записи. \n Пожалуйста, отправьте.",
"are_you_sure_you_want_to_send_this_audio_message":"Вы уверены, что хотите отправить это аудио сообщение?",
"cancel":"Отмена",
"have_sent_an_audio_reply":"отправил аудио ответ.",
"block":"блок",
"unfriend":"Unfriend",
"search_by_name":"Поиск по имени",
"say_something_about_this":"Скажи что-нибудь об этом",
"share_now":"Поделись сейчас",
"nudity":"нагота",
"violence":"насилие",
"harassment":"домогательство",
"suicide_or_self_injury":"Самоубийство или самоубийство",
"false_news":"Ложные новости",
"spam":"Спам",
"unauthorised_sales":"Несанкционированные продажи",
"hate_speech":"Ненавистнические высказывания",
"terrorism":"терроризм",
"incorrect_voting_information":"Неверная информация для голосования",
"reporting_trend":"Отчетный тренд",
"use_camera":"Использовать камеру",
"upload_from_gallery":"Загрузить из галереи",
"add_photo":"Добавить фото",
"remove_photo":"Удалить фото",
"create_new_folder":"Создать новую папку",
"please_select_folder":"Пожалуйста, выберите папку",
"about_this_group":"Об этой группе",
"view_group_info":"Просмотр информации о группе",
"history":"история",
"type_your_message":"Введите ваше сообщение ...",
"search_by_name":"Поиск по имени",
"search_name":"Поиск имени",
"add_friends_to_tag":"Добавить друзей в тег",
"shared":"общий",
"s_trend":"тренд",
"people_who_liked":"Люди, которым понравилось",
"people_who_shared":"Люди, которые поделились",
"people_who_viewd":"Люди, которые смотрели",
"share":"доля",
"this_feature_is_for_premium_members_only":"Эта функция предназначена только для членов премиум-класса.",
"buy_a_premium_package_if_you_wish_to_add_more_trend_preference":"Купите премиум-пакет, если хотите добавить больше трендов.",
"sorry_you_can_t_add_more_trend_preference_maximum_limit_for_adding_trend_preference_is_reached":"К сожалению, вы не можете добавить больше предпочтений тренда. Максимальный лимит для добавления предпочтения тренда достигнут",
"please_add_a_message":"Пожалуйста, добавьте сообщение.",
"public_group":"Общественная группа",
"closed_group":"Закрытая группа",
"secret_group":"Секретная группа",
"add_video":"Добавить видео",
"clear_chat":"Очистить чат",
"search_people":"Поиск людей",
"people":"люди",
"tags":"Теги",
"places":"места",
"are_you_sure_you_want_to_block":"Вы уверены, что хотите заблокировать",
"contest_list":"Список соревнований",
"posted_trends":"Опубликованные тенденции",
"no_contests_found":"Конкурсы не найдены",
"monthly_contest":"Ежемесячный конкурс",
"contest":"конкурс",
"prize":"приз",
"contest_winner_list":"Список победителей конкурса",
"contest_winners":"Победители конкурса",
"search_winner":"Поиск победителя",
"no_data_found":"Данные не найдены.",
"entry_fee":"Входная плата",
"contest_details":"Детали конкурса",
"save_profile":"Сохранить профиль",
"quick_tips":"Быстрые советы",
"trend_alert_tag_prefrences_upto_5_tags":"Настройки оповещения о трендах до 5 тегов",
"upload_upto_15_images_status":"Загрузить до 15 изображений / статус",
"upload_1_video_with_max_size_256mb":"Загрузить 1 видео с максимальным размером 256 МБ",
"trend_last_upto_90_days":"Тенденция длилась до 90 дней",
"access_to_your_friend_list_and_groups":"Доступ к вашему списку друзей и группам.",
"view_profile":"Просмотреть профиль",
"are_you_sure_you_want_to_clear_this_chat":"Вы уверены, что хотите очистить этот чат?",
"search_tag":"Тег поиска",
"no_internet_connection":"Подключение к Интернету отсутствует.",
"search_trend":"Тренд поиска",
"miles_5":"5 миль",
"miles_20":"20 миль",
"miles_50":"50 миль",
"miles_100":"100 миль",
"trender_travel":"Трендер Трэвел",
"trend_detail":"Тренд Подробнее",
"no_trends_found":"Тенденции не найдены.",
"turn_off_to_type_new_location":"Выключите, чтобы ввести новое местоположение.",
"contest_trend_post_list":"Конкурсный тренд",
"blocklist":"Blocklist",
"join_group":"Вступить в группу",
"no_data_available":"Данные недоступны",
"about_this_group":"Об этой группе",
"member_not_available":"Участник недоступен",
"admin_not_available":"Администратор недоступен",
"see_all":"Увидеть все",
"edit_group_detail":"Изменить детали группы",
"message_token":"Токен сообщения",
"alert_settings":"Настройки уведомлений",
"when_on_trender_alert":"Когда на Trender Alert",
"get_notification_from_everwhere":"Получать уведомления отовсюду",
"only_people_you_follow":"Только люди, за которыми вы следуете",
"only_people_following_you":"Только люди, которые следуют за тобой",
"gets_a_heads_up_notify_when_someone":"Получает голову / уведомить, когда кто-то",
"likes_your_trends":"Любит ваши тренды",
"follow_your_trends":"Следуй своим тенденциям",
"comment_on_your_trends":"Прокомментируйте свои тренды",
"send_a_message":"Отправить сообщение",
"turn_on":"Включи",
"text_chat":"Текстовый чат",
"audio_chat":"Аудио чат",
"save_setting":"Сохранить настройки",
"ad_url_will_open_in_external_browser":"URL объявления (откроется во внешнем браузере)",
"bussines_name":"Имя Бизнеса",
"bussines_type":"Тип бизнеса",
"duration_of_ad":"Продолжительность объявления",
"placement_prefrences":"Настройки размещения",
"pay":"платить",
"contest_payment":"Оплата конкурса",
"are_you_sure_you_want_to_delete_this_messages":"Вы уверены, что хотите удалить это сообщение?",
"active_now":"В данный момент активен",
"online":"В сети",
"this_message_was_deleted":"Это сообщение было удалено",
"last_seen":"В последний раз видел",
"advertisement_list":"Список рекламы",
"pending":"в ожидании",
"approved":"Одобренный",
"rejected":"Отклонено",
"business_account_details":"Бизнес-аккаунт",
"activity":"Деятельность",
"content":"содержание",
"audience":"Аудитория",
"business_account":"Бизнес аккаунт",
"interactions":"взаимодействия",
"profile_visits":"Посещения профиля",
"discovery":"открытие",
"reach":"достичь",
"impression":"Впечатление",
"top_locations":"Лучшие места",
"cities":"Города",
"countries":"страны",
"age":"Возраст",
"men":"Мужчины",
"women":"женщины",
"what_are_interactions":"Что такое взаимодействия?",
"this_set_of_insights_measures_the_actions_people_take_when_they_engage_with_your_account":"Этот набор идей измеряет действия, предпринимаемыелюдьмипри взаимодействии с вашей учетной записью.",
"the_number_of_times_your_profile_was_viewed":"Количество просмотров вашего профиля.",
"what_is_discovery":"Что такое Discovery?",
"this_set_of_insights_measures_how_many_people_see_your_content_and_where_they_find_it":"Этот набор идей показывает, сколько людей видят ваш контент и где они его находят.",
"the_number_of_unique_accounts_that_have_seen_any_of_your_posts_the_reach_metric_is_an_estimate_and_may_not_be_exact":"Количество уникальных аккаунтов, которые видели какие-либо ваши сообщения. Метрика охвата является приблизительной и может быть неточной.",
"the_total_number_of_times_all_of_your_posts_have_been_seen":"Общее количество просмотров всех ваших сообщений.",
"feed_posts":"Подача сообщений",
"see_all":"Увидеть все",
"change_language":"Изменить язык",
"chinese":"китайский язык",
"spanish":"испанский",
"english":"английский",
"hindi":"хинди",
"arabic":"арабский",
"portuguese":"португальский",
"bengali":"бенгальский",
"russian":"русский",
"japanese":"японский язык",
"german":"Немецкий",
"ascending":"Восходящий",
"descending":"нисходящий",
"start_Date":"Дата начала",
"tap_To_stop_recording_audio":"Нажмите, чтобы остановить запись звука",
"gallery":"Галерея",
"camera":"камера",
"please_select_your_option":"Пожалуйста, выберите ваш вариант",
"Write_a_reply":"Напишите ответ...",
"sorting":"Сортировка",
"Requested":"запрошенный",
"follow":"следить",
"are_you_sure_you_want_to_send_this_audio_message":"Вы уверены, что хотите отправить это аудио сообщение?",
"ok":"Хорошо",
"turn_off_post_notifications":"отключить почтовые уведомления",
"view":"Посмотреть",
"Are_you_sure_you_want_to_delete_this_trend":"Вы уверены, что хотите отправить это аудио сообщение?",
"You_can_not_add_more_than_3_locations":"Вы не можете добавить более 3 мест.",
"You_can_not_add_more_than_3_tags":"Вы не можете добавить более 3 тегов.",
"Add_new":"ДОБАВИТЬ НОВОЕ",
"hour":"час",
"You_can_select_only_15_images_or_status":"Вы можете выбрать только 15 изображений или статус!",
"To_upload_more_get_premium_package":"Чтобы загрузить больше, получите премиум-пакет!",
"You_can_select_only_1_video":"Вы можете выбрать только 1 видео!",
"create_folder":"Создать папку",
"no_friends_found":"Друзей не найдено",
"search":"Поиск",
"total_trends":"Всего трендов",
"Premium_Package":"Премиум Пакет",
"Ability_to_enter_monthly_contest":"Возможность участия в ежемесячном конкурсе.",
"Transaction_ID":"ID транзакции",
"Purchase_Date":"Дата покупки",
"Payment_Details":"Детали оплаты",
"invite_contact_info":"Чтобы люди могли подключаться к Trender Alert, вы можете периодически синхронизировать свои контакты и сохранять их на наших серверах. Вы выбираете, какие контакты пригласить. Отключите в любое время, чтобы остановить синхронизацию.",
"invite_friends":"Пригласить друзей",
"invite_join":"присоединиться к TrenderAlert",
"Get_Started":"Начать",
"No_winner_declared_yet":"Победитель еще не объявлен",
"No_trend_posted_yet":"Тенденции пока нет",
"Advertise_List":"Список рекламы",
"created_on":"Создано на",
"create_ad":"Создать объявление",
"add_imgs_or_video":"Добавить изображения или видео",
"Duration_of_ad":"Продолжительность объявления (в днях)",
"no_record_found":"Запись не найдена",
"What_is_discovery":"Что такое открытие?",
"discovery_title_info":"Этот набор идей показывает, сколько людей видят ваш контент и где они его находят.",
"reach_Info":"Количество уникальных аккаунтов, которые видели какие-либо ваши сообщения. Метрика охвата является приблизительной и может быть неточной.",
"What_are_Interactions":"Что такое взаимодействия?",
"links_and_websites":"Этот набор идей измеряет действия, предпринимаемые людьми при работе с вашей учетной записью.",
"trend_views":"Тенденции",
"views_info":"Количество просмотров вашей тенденции.",
"Trend_Interactions":"Trend Interactions",
"Profile_visits_on_your_account":"Профиль посещения на вашем аккаунте",
"top_locations":"Лучшие места",
"home":"Главная",
"Go_premium":"Премиум",
"Languages":"Языки",
"Likes":"Нравится",
"links_and_websites":"Ссылки и сайты",
"profile":"Профиль",
"read_more":"Читать далее",
"read_less":"Читать меньше",
"trend_setter":"Установщик тренда",
"first_name":"Имя",
"last_name":"Фамилия",
"birth_date":"Дата рождения (ММ / ДД / ГГГГ)",
"mobileNo":"Номер мобильного",
"Unfollow":"Перестать",
"FOLLOW":"СЛЕДОВАТЬ",
"add_Friend":"ДОБАВИТЬ В ДРУЗЬЯ",
"remove":"УДАЛИТЬ",
"accept":"ACCEPT",
"All_Group_Members":"Все участники группы",
"Unmute_Member":"Включить звук",
"mute_member":"Безгласный член",
"make_admin":"Сделать администратором",
"remove_member":"Удалить участника",
"Are_you_sure_you_want_to_unmute_this_user":"Вы уверены, что хотите включить звук этого пользователя?",
"Are_you_sure_you_want_to_mute_this_user":"Вы уверены, что хотите отключить звук этого пользователя?",
"TrenderAlert":"TrenderAlert",
"Are_you_sure_you_want_to_remove_this_user":"Вы уверены, что хотите удалить этого пользователя?",
"add_group_members":"Добавить участников группы",
"please_select_member":"Пожалуйста, выберите участников",
"send_request":"Послать запрос",
"Joined":"Регистрация",
"Group_Description":"Описание группы",
"Group_Name_is_required":"Название группы обязательно.",
"search_group":"Поиск группы",
"secret_group_info":"Любой может искать группу. Только участники могут видеть, кто в ней и что они публикуют.",
"Please_select_privacy_option":"Пожалуйста, выберите вариант конфиденциальности.",
"Group_details":"Детали группы",
"reject":"отклонять",
"accept_reject_request":"Принять или отклонить запрос на присоединение к этой группе.",
"Group_Request_Action":"Действие группового запроса",
"leave":"Покидать",
"Are_you_sure_you_want_to_leave_this_group":"Вы уверены, что хотите покинуть эту группу?",
"leave_group_info":"Вы последний участник этой группы. Если вы покинете группу, эта группа будет удалена.",
"group":"группа",
"post":"Почта",
"interaction_title_info":"Этот набор идей измеряет действия, предпринимаемые людьми, когда они взаимодействуют с вашей учетной записью.",
"turn_on_post_notifications":"Включить почтовые уведомления",
"Welcome_to_TrenderAlert":"Добро пожаловать в TrenderAlert",
"welcomeInfo":"Найдите людей, чтобы подписаться и начать делиться фотографиями и тенденциями. Вы можете изменить свое имя пользователя в любое время.",
"interaction_title_info":"Этот набор идей измеряет действия, предпринимаемые людьми, когда они взаимодействуют с вашей учетной записью.",
"My_Groups":"Мои группы",
"Groups_Suggestion": "Предложение группы",
"Confirm":"Подтверждение"
}
