{
  "images" : [
    {
      "idiom" : "universal",
      "filename" : "All My Favorite.png",
      "scale" : "1x"
    },
    {
      "idiom" : "universal",
      "filename" : "All My Favorite@2x.png",
      "scale" : "2x"
    },
    {
      "idiom" : "universal",
      "filename" : "All My Favorite@3x.png",
      "scale" : "3x"
    }
  ],
  "info" : {
    "version" : 1,
    "author" : "xcode"
  }
}