{
  "images" : [
    {
      "idiom" : "universal",
      "filename" : "dots-vertical (9)-1.png",
      "scale" : "1x"
    },
    {
      "idiom" : "universal",
      "filename" : "dots-vertical (9).png",
      "scale" : "2x"
    },
    {
      "idiom" : "universal",
      "filename" : "dots-vertical (10).png",
      "scale" : "3x"
    }
  ],
  "info" : {
    "version" : 1,
    "author" : "xcode"
  }
}